# MagicaVoxel @ Ephtracy

# group
g Grass_1_2X

# material
mtllib Grass_1_2X.mtl
usemtl palette

# normals
vn -1 0 0
vn 1 0 0
vn 0 0 1
vn 0 0 -1
vn 0 -1 0
vn 0 1 0

# texcoords
vt 0.431641 0.5
vt 0.580078 0.5
vt 0.603516 0.5
vt 0.716797 0.5
vt 0.724609 0.5
vt 0.740234 0.5
vt 0.767578 0.5
vt 0.880859 0.5
vt 0.884766 0.5
vt 0.888672 0.5
vt 0.892578 0.5
vt 0.896484 0.5
vt 0.900391 0.5

# verts
v -16 0 16
v -16 0 4
v -16 0 2
v -16 0 -0
v -16 0 -2
v -16 0 -10
v -16 0 -12
v -16 0 -16
v -16 1 16
v -16 1 15
v -16 1 13
v -16 1 12
v -16 1 9
v -16 1 8
v -16 1 4
v -16 1 2
v -16 1 -0
v -16 1 -2
v -16 1 -8
v -16 1 -9
v -16 1 -10
v -16 1 -12
v -16 1 -15
v -16 1 -16
v -16 2 16
v -16 2 15
v -16 2 13
v -16 2 12
v -16 2 9
v -16 2 8
v -16 2 -8
v -16 2 -9
v -16 2 -15
v -16 2 -16
v 16 0 16
v 16 0 -0
v 16 0 -2
v 16 0 -14
v 16 0 -16
v 16 1 16
v 16 1 15
v 16 1 9
v 16 1 8
v 16 1 -0
v 16 1 -2
v 16 1 -8
v 16 1 -9
v 16 1 -11
v 16 1 -12
v 16 1 -14
v 16 1 -15
v 16 2 16
v 16 2 15
v 16 2 9
v 16 2 8
v 16 2 -8
v 16 2 -9
v 16 2 -11
v 16 2 -12
v 16 2 -15
v 16 2 -16
v -16 0 16
v -16 1 16
v -16 2 16
v -14 0 16
v -14 1 16
v -14 2 16
v -12 0 16
v -12 1 16
v -2 0 16
v -2 2 16
v -1 1 16
v -1 2 16
v 0 0 16
v 0 1 16
v 1 1 16
v 1 2 16
v 2 1 16
v 2 2 16
v 6 1 16
v 6 2 16
v 7 1 16
v 7 2 16
v 14 1 16
v 14 2 16
v 16 0 16
v 16 1 16
v 16 2 16
v -16 0 -16
v -16 1 -16
v -16 2 -16
v -14 1 -16
v -14 2 -16
v -12 0 -16
v -12 1 -16
v -10 0 -16
v -10 1 -16
v -6 1 -16
v -6 2 -16
v -5 1 -16
v -5 2 -16
v -2 1 -16
v -2 2 -16
v -1 1 -16
v -1 2 -16
v 1 1 -16
v 1 2 -16
v 2 1 -16
v 2 2 -16
v 4 1 -16
v 4 2 -16
v 5 1 -16
v 5 2 -16
v 14 0 -16
v 14 2 -16
v 16 0 -16
v 16 2 -16
v -16 0 16
v -14 0 16
v -12 0 16
v -2 0 16
v 0 0 16
v 16 0 16
v -14 0 14
v -12 0 14
v -10 0 14
v -8 0 14
v -2 0 14
v 0 0 14
v 12 0 14
v 14 0 14
v -10 0 12
v -8 0 12
v -2 0 12
v 0 0 12
v 10 0 12
v 12 0 12
v 14 0 12
v -2 0 10
v 0 0 10
v 10 0 10
v 12 0 10
v -6 0 6
v -4 0 6
v -16 0 4
v -14 0 4
v -6 0 4
v -4 0 4
v 2 0 4
v 4 0 4
v -16 0 2
v -14 0 2
v -8 0 2
v -6 0 2
v 2 0 2
v 4 0 2
v -16 0 -0
v -14 0 -0
v -8 0 -0
v -6 0 -0
v -4 0 -0
v -2 0 -0
v 10 0 -0
v 12 0 -0
v 14 0 -0
v 16 0 -0
v -16 0 -2
v -14 0 -2
v -4 0 -2
v -2 0 -2
v 10 0 -2
v 12 0 -2
v 14 0 -2
v 16 0 -2
v 10 0 -4
v 12 0 -4
v -12 0 -6
v -10 0 -6
v -4 0 -6
v -2 0 -6
v -14 0 -8
v -12 0 -8
v -10 0 -8
v -4 0 -8
v -2 0 -8
v -16 0 -10
v -14 0 -10
v -12 0 -10
v -4 0 -10
v -2 0 -10
v -16 0 -12
v -14 0 -12
v -12 0 -12
v 0 0 -12
v 2 0 -12
v 6 0 -12
v 8 0 -12
v -12 0 -14
v -10 0 -14
v 0 0 -14
v 2 0 -14
v 6 0 -14
v 8 0 -14
v 14 0 -14
v 16 0 -14
v -16 0 -16
v -12 0 -16
v -10 0 -16
v 14 0 -16
v 16 0 -16
v -16 2 16
v -14 2 16
v -2 2 16
v -1 2 16
v 1 2 16
v 2 2 16
v 6 2 16
v 7 2 16
v 14 2 16
v 16 2 16
v -16 2 15
v -14 2 15
v -11 2 15
v -10 2 15
v -8 2 15
v -7 2 15
v -5 2 15
v -4 2 15
v -2 2 15
v -1 2 15
v 1 2 15
v 2 2 15
v 3 2 15
v 4 2 15
v 6 2 15
v 7 2 15
v 9 2 15
v 10 2 15
v 11 2 15
v 14 2 15
v 16 2 15
v -11 2 14
v -10 2 14
v -8 2 14
v -7 2 14
v -5 2 14
v -4 2 14
v -3 2 14
v -2 2 14
v -1 2 14
v 1 2 14
v 3 2 14
v 4 2 14
v 7 2 14
v 9 2 14
v 10 2 14
v 11 2 14
v -16 2 13
v -15 2 13
v -13 2 13
v -12 2 13
v -6 2 13
v -5 2 13
v -3 2 13
v -2 2 13
v -1 2 13
v 1 2 13
v 5 2 13
v 6 2 13
v 8 2 13
v 9 2 13
v -16 2 12
v -15 2 12
v -13 2 12
v -12 2 12
v -10 2 12
v -9 2 12
v -6 2 12
v -5 2 12
v -2 2 12
v -1 2 12
v 1 2 12
v 2 2 12
v 3 2 12
v 4 2 12
v 5 2 12
v 6 2 12
v 8 2 12
v 9 2 12
v 11 2 12
v 12 2 12
v -10 2 11
v -9 2 11
v -8 2 11
v -6 2 11
v -5 2 11
v -4 2 11
v -3 2 11
v -2 2 11
v -1 2 11
v 1 2 11
v 2 2 11
v 3 2 11
v 4 2 11
v 5 2 11
v 6 2 11
v 11 2 11
v 12 2 11
v -13 2 10
v -12 2 10
v -9 2 10
v -8 2 10
v -4 2 10
v -3 2 10
v 12 2 10
v 13 2 10
v -16 2 9
v -14 2 9
v -13 2 9
v -12 2 9
v -6 2 9
v -5 2 9
v 0 2 9
v 2 2 9
v 5 2 9
v 6 2 9
v 10 2 9
v 11 2 9
v 12 2 9
v 13 2 9
v 14 2 9
v 16 2 9
v -16 2 8
v -14 2 8
v -13 2 8
v -12 2 8
v -6 2 8
v -5 2 8
v -4 2 8
v -3 2 8
v 0 2 8
v 2 2 8
v 3 2 8
v 4 2 8
v 5 2 8
v 6 2 8
v 10 2 8
v 11 2 8
v 12 2 8
v 13 2 8
v 14 2 8
v 16 2 8
v -9 2 7
v -8 2 7
v -4 2 7
v -3 2 7
v 3 2 7
v 4 2 7
v 8 2 7
v 9 2 7
v -12 2 6
v -11 2 6
v -9 2 6
v -8 2 6
v -7 2 6
v -6 2 6
v -5 2 6
v -4 2 6
v 4 2 6
v 5 2 6
v 8 2 6
v 9 2 6
v -12 2 5
v -11 2 5
v -10 2 5
v -9 2 5
v -7 2 5
v -6 2 5
v -5 2 5
v -4 2 5
v -2 2 5
v -1 2 5
v 1 2 5
v 2 2 5
v 4 2 5
v 5 2 5
v 7 2 5
v 8 2 5
v 10 2 5
v 11 2 5
v -15 2 4
v -14 2 4
v -10 2 4
v -9 2 4
v -2 2 4
v -1 2 4
v 1 2 4
v 2 2 4
v 7 2 4
v 8 2 4
v 10 2 4
v 11 2 4
v -15 2 3
v -14 2 3
v -13 2 3
v -12 2 3
v -11 2 3
v -10 2 3
v -9 2 3
v -7 2 3
v -6 2 3
v 6 2 3
v 7 2 3
v 12 2 3
v 13 2 3
v -14 2 2
v -13 2 2
v -12 2 2
v -11 2 2
v -10 2 2
v -8 2 2
v -7 2 2
v -6 2 2
v -3 2 2
v -2 2 2
v -1 2 2
v 0 2 2
v 2 2 2
v 3 2 2
v 6 2 2
v 7 2 2
v 12 2 2
v 13 2 2
v 14 2 2
v -14 2 1
v -13 2 1
v -8 2 1
v -7 2 1
v -6 2 1
v -3 2 1
v -2 2 1
v -1 2 1
v 0 2 1
v 1 2 1
v 2 2 1
v 3 2 1
v 6 2 1
v 7 2 1
v 8 2 1
v 10 2 1
v 11 2 1
v 13 2 1
v 14 2 1
v -11 2 -0
v -10 2 -0
v -1 2 -0
v 0 2 -0
v 2 2 -0
v 3 2 -0
v 7 2 -0
v 8 2 -0
v 10 2 -0
v 11 2 -0
v -14 2 -1
v -13 2 -1
v -11 2 -1
v -10 2 -1
v -7 2 -1
v -6 2 -1
v -3 2 -1
v -2 2 -1
v -1 2 -1
v 0 2 -1
v 1 2 -1
v 2 2 -1
v 3 2 -1
v 6 2 -1
v 7 2 -1
v 8 2 -1
v 9 2 -1
v 13 2 -1
v 14 2 -1
v -14 2 -2
v -13 2 -2
v -12 2 -2
v -7 2 -2
v -6 2 -2
v -3 2 -2
v -2 2 -2
v 0 2 -2
v 1 2 -2
v 2 2 -2
v 3 2 -2
v 6 2 -2
v 7 2 -2
v 8 2 -2
v 9 2 -2
v 12 2 -2
v 13 2 -2
v 14 2 -2
v -13 2 -3
v -12 2 -3
v -9 2 -3
v -8 2 -3
v -7 2 -3
v -6 2 -3
v -2 2 -3
v -1 2 -3
v 6 2 -3
v 7 2 -3
v 12 2 -3
v 13 2 -3
v -13 2 -4
v -12 2 -4
v -9 2 -4
v -8 2 -4
v -2 2 -4
v -1 2 -4
v -5 2 -5
v -4 2 -5
v -2 2 -5
v -1 2 -5
v 4 2 -5
v 5 2 -5
v 12 2 -5
v 13 2 -5
v -13 2 -6
v -12 2 -6
v -9 2 -6
v -8 2 -6
v -7 2 -6
v -5 2 -6
v -4 2 -6
v -2 2 -6
v -1 2 -6
v 4 2 -6
v 5 2 -6
v 8 2 -6
v 9 2 -6
v 12 2 -6
v 13 2 -6
v -9 2 -7
v -8 2 -7
v -4 2 -7
v -3 2 -7
v 0 2 -7
v 1 2 -7
v 3 2 -7
v 4 2 -7
v 8 2 -7
v 9 2 -7
v 10 2 -7
v 11 2 -7
v -16 2 -8
v -14 2 -8
v -13 2 -8
v -12 2 -8
v -8 2 -8
v -7 2 -8
v -6 2 -8
v -5 2 -8
v -4 2 -8
v -3 2 -8
v -2 2 -8
v -1 2 -8
v 0 2 -8
v 1 2 -8
v 3 2 -8
v 4 2 -8
v 5 2 -8
v 6 2 -8
v 10 2 -8
v 11 2 -8
v 12 2 -8
v 13 2 -8
v 14 2 -8
v 16 2 -8
v -16 2 -9
v -14 2 -9
v -13 2 -9
v -12 2 -9
v -6 2 -9
v -5 2 -9
v -2 2 -9
v -1 2 -9
v 2 2 -9
v 4 2 -9
v 5 2 -9
v 6 2 -9
v 8 2 -9
v 9 2 -9
v 12 2 -9
v 13 2 -9
v 14 2 -9
v 16 2 -9
v -13 2 -10
v -12 2 -10
v 2 2 -10
v 4 2 -10
v 5 2 -10
v 6 2 -10
v 8 2 -10
v 9 2 -10
v 11 2 -10
v 12 2 -10
v 13 2 -10
v -14 2 -11
v -13 2 -11
v -11 2 -11
v -10 2 -11
v -9 2 -11
v -6 2 -11
v -5 2 -11
v -2 2 -11
v -1 2 -11
v 1 2 -11
v 2 2 -11
v 5 2 -11
v 6 2 -11
v 8 2 -11
v 9 2 -11
v 11 2 -11
v 12 2 -11
v 15 2 -11
v 16 2 -11
v -14 2 -12
v -13 2 -12
v -12 2 -12
v -11 2 -12
v -10 2 -12
v -9 2 -12
v -6 2 -12
v -5 2 -12
v -2 2 -12
v -1 2 -12
v 1 2 -12
v 2 2 -12
v 3 2 -12
v 4 2 -12
v 5 2 -12
v 6 2 -12
v 8 2 -12
v 9 2 -12
v 15 2 -12
v 16 2 -12
v -12 2 -13
v -11 2 -13
v -6 2 -13
v -5 2 -13
v -4 2 -13
v -3 2 -13
v 0 2 -13
v 1 2 -13
v 3 2 -13
v 4 2 -13
v 5 2 -13
v 6 2 -13
v 12 2 -13
v 13 2 -13
v 14 2 -13
v 15 2 -13
v -11 2 -14
v -10 2 -14
v -8 2 -14
v -7 2 -14
v -4 2 -14
v -3 2 -14
v -1 2 -14
v 0 2 -14
v 1 2 -14
v 7 2 -14
v 8 2 -14
v 10 2 -14
v 11 2 -14
v 12 2 -14
v 13 2 -14
v 14 2 -14
v 15 2 -14
v -16 2 -15
v -14 2 -15
v -11 2 -15
v -10 2 -15
v -8 2 -15
v -7 2 -15
v -6 2 -15
v -5 2 -15
v -2 2 -15
v -1 2 -15
v 1 2 -15
v 2 2 -15
v 4 2 -15
v 5 2 -15
v 7 2 -15
v 8 2 -15
v 10 2 -15
v 11 2 -15
v 14 2 -15
v 16 2 -15
v -16 2 -16
v -14 2 -16
v -6 2 -16
v -5 2 -16
v -2 2 -16
v -1 2 -16
v 1 2 -16
v 2 2 -16
v 4 2 -16
v 5 2 -16
v 14 2 -16
v 16 2 -16

# faces
f 9/5/1 2/5/1 1/5/1
f 10/5/1 2/5/1 9/5/1
f 11/5/1 2/5/1 10/5/1
f 12/5/1 2/5/1 11/5/1
f 13/5/1 2/5/1 12/5/1
f 14/5/1 2/5/1 13/5/1
f 15/8/1 3/8/1 2/8/1
f 15/5/1 2/5/1 14/5/1
f 16/5/1 4/5/1 3/5/1
f 16/8/1 3/8/1 15/8/1
f 17/8/1 5/8/1 4/8/1
f 17/5/1 4/5/1 16/5/1
f 18/5/1 6/5/1 5/5/1
f 18/8/1 5/8/1 17/8/1
f 19/5/1 6/5/1 18/5/1
f 20/5/1 6/5/1 19/5/1
f 21/8/1 7/8/1 6/8/1
f 21/5/1 6/5/1 20/5/1
f 22/5/1 8/5/1 7/5/1
f 22/8/1 7/8/1 21/8/1
f 23/5/1 8/5/1 22/5/1
f 24/5/1 8/5/1 23/5/1
f 25/8/1 10/8/1 9/8/1
f 26/5/1 11/5/1 10/5/1
f 26/8/1 10/8/1 25/8/1
f 27/11/1 12/11/1 11/11/1
f 27/5/1 11/5/1 26/5/1
f 28/5/1 13/5/1 12/5/1
f 28/11/1 12/11/1 27/11/1
f 29/8/1 14/8/1 13/8/1
f 29/5/1 13/5/1 28/5/1
f 30/5/1 15/5/1 14/5/1
f 30/8/1 14/8/1 29/8/1
f 30/5/1 16/5/1 15/5/1
f 30/5/1 17/5/1 16/5/1
f 30/5/1 18/5/1 17/5/1
f 30/5/1 19/5/1 18/5/1
f 31/8/1 20/8/1 19/8/1
f 31/5/1 19/5/1 30/5/1
f 32/5/1 21/5/1 20/5/1
f 32/8/1 20/8/1 31/8/1
f 32/5/1 23/5/1 22/5/1
f 32/5/1 22/5/1 21/5/1
f 33/8/1 24/8/1 23/8/1
f 33/5/1 23/5/1 32/5/1
f 34/8/1 24/8/1 33/8/1
f 35/5/2 36/5/2 40/5/2
f 40/5/2 36/5/2 41/5/2
f 41/5/2 36/5/2 42/5/2
f 42/5/2 36/5/2 43/5/2
f 36/8/2 37/8/2 44/8/2
f 43/5/2 36/5/2 44/5/2
f 37/5/2 38/5/2 45/5/2
f 44/8/2 37/8/2 45/8/2
f 45/5/2 38/5/2 46/5/2
f 46/5/2 38/5/2 47/5/2
f 47/5/2 38/5/2 48/5/2
f 48/5/2 38/5/2 49/5/2
f 38/8/2 39/8/2 50/8/2
f 49/5/2 38/5/2 50/5/2
f 50/8/2 39/8/2 51/8/2
f 40/8/2 41/8/2 52/8/2
f 41/5/2 42/5/2 53/5/2
f 52/8/2 41/8/2 53/8/2
f 42/8/2 43/8/2 54/8/2
f 53/5/2 42/5/2 54/5/2
f 43/5/2 44/5/2 55/5/2
f 54/8/2 43/8/2 55/8/2
f 44/5/2 45/5/2 55/5/2
f 45/5/2 46/5/2 55/5/2
f 46/8/2 47/8/2 56/8/2
f 55/5/2 46/5/2 56/5/2
f 47/5/2 48/5/2 57/5/2
f 56/8/2 47/8/2 57/8/2
f 48/11/2 49/11/2 58/11/2
f 57/5/2 48/5/2 58/5/2
f 50/5/2 51/5/2 59/5/2
f 58/11/2 49/11/2 59/11/2
f 49/5/2 50/5/2 59/5/2
f 51/8/2 39/8/2 60/8/2
f 59/5/2 51/5/2 60/5/2
f 60/8/2 39/8/2 61/8/2
f 65/5/3 63/5/3 62/5/3
f 66/8/3 64/8/3 63/8/3
f 66/5/3 63/5/3 65/5/3
f 67/8/3 64/8/3 66/8/3
f 68/11/3 66/11/3 65/11/3
f 69/5/3 67/5/3 66/5/3
f 69/11/3 66/11/3 68/11/3
f 70/5/3 69/5/3 68/5/3
f 71/5/3 67/5/3 69/5/3
f 71/5/3 69/5/3 70/5/3
f 72/8/3 71/8/3 70/8/3
f 73/8/3 71/8/3 72/8/3
f 74/8/3 72/8/3 70/8/3
f 75/5/3 73/5/3 72/5/3
f 75/8/3 72/8/3 74/8/3
f 76/5/3 75/5/3 74/5/3
f 76/5/3 73/5/3 75/5/3
f 77/5/3 73/5/3 76/5/3
f 78/5/3 76/5/3 74/5/3
f 78/8/3 77/8/3 76/8/3
f 79/8/3 77/8/3 78/8/3
f 80/5/3 78/5/3 74/5/3
f 80/5/3 79/5/3 78/5/3
f 81/5/3 79/5/3 80/5/3
f 82/5/3 80/5/3 74/5/3
f 82/11/3 81/11/3 80/11/3
f 83/11/3 81/11/3 82/11/3
f 84/5/3 82/5/3 74/5/3
f 84/5/3 83/5/3 82/5/3
f 85/5/3 83/5/3 84/5/3
f 86/5/3 84/5/3 74/5/3
f 87/8/3 85/8/3 84/8/3
f 87/5/3 84/5/3 86/5/3
f 88/8/3 85/8/3 87/8/3
f 89/5/4 90/5/4 92/5/4
f 90/8/4 91/8/4 92/8/4
f 92/8/4 91/8/4 93/8/4
f 89/5/4 92/5/4 94/5/4
f 92/5/4 93/5/4 94/5/4
f 94/5/4 93/5/4 95/5/4
f 94/8/4 95/8/4 96/8/4
f 95/5/4 93/5/4 97/5/4
f 96/8/4 95/8/4 97/8/4
f 96/5/4 97/5/4 98/5/4
f 97/5/4 93/5/4 98/5/4
f 98/5/4 93/5/4 99/5/4
f 96/5/4 98/5/4 100/5/4
f 98/11/4 99/11/4 100/11/4
f 100/11/4 99/11/4 101/11/4
f 96/5/4 100/5/4 102/5/4
f 100/5/4 101/5/4 102/5/4
f 102/5/4 101/5/4 103/5/4
f 96/5/4 102/5/4 104/5/4
f 102/8/4 103/8/4 104/8/4
f 104/8/4 103/8/4 105/8/4
f 96/5/4 104/5/4 106/5/4
f 104/5/4 105/5/4 106/5/4
f 106/5/4 105/5/4 107/5/4
f 96/5/4 106/5/4 108/5/4
f 106/8/4 107/8/4 108/8/4
f 108/8/4 107/8/4 109/8/4
f 96/5/4 108/5/4 110/5/4
f 108/5/4 109/5/4 110/5/4
f 110/5/4 109/5/4 111/5/4
f 96/5/4 110/5/4 112/5/4
f 110/11/4 111/11/4 112/11/4
f 112/11/4 111/11/4 113/11/4
f 96/5/4 112/5/4 114/5/4
f 112/5/4 113/5/4 114/5/4
f 114/5/4 113/5/4 115/5/4
f 114/8/4 115/8/4 116/8/4
f 116/8/4 115/8/4 117/8/4
f 124/5/5 119/5/5 118/5/5
f 124/11/5 120/11/5 119/11/5
f 125/5/5 121/5/5 120/5/5
f 125/11/5 120/11/5 124/11/5
f 126/5/5 121/5/5 125/5/5
f 127/5/5 121/5/5 126/5/5
f 128/8/5 122/8/5 121/8/5
f 128/5/5 121/5/5 127/5/5
f 129/5/5 123/5/5 122/5/5
f 129/8/5 122/8/5 128/8/5
f 130/5/5 123/5/5 129/5/5
f 131/5/5 123/5/5 130/5/5
f 132/11/5 127/11/5 126/11/5
f 132/5/5 125/5/5 124/5/5
f 132/5/5 126/5/5 125/5/5
f 133/5/5 128/5/5 127/5/5
f 133/11/5 127/11/5 132/11/5
f 133/5/5 130/5/5 129/5/5
f 133/5/5 129/5/5 128/5/5
f 134/5/5 130/5/5 133/5/5
f 135/5/5 130/5/5 134/5/5
f 136/5/5 130/5/5 135/5/5
f 137/9/5 131/9/5 130/9/5
f 137/5/5 130/5/5 136/5/5
f 138/5/5 123/5/5 131/5/5
f 138/9/5 131/9/5 137/9/5
f 139/5/5 133/5/5 132/5/5
f 139/5/5 134/5/5 133/5/5
f 139/8/5 135/8/5 134/8/5
f 140/5/5 136/5/5 135/5/5
f 140/8/5 135/8/5 139/8/5
f 141/12/5 137/12/5 136/12/5
f 141/5/5 136/5/5 140/5/5
f 142/5/5 138/5/5 137/5/5
f 142/12/5 137/12/5 141/12/5
f 143/5/5 140/5/5 139/5/5
f 143/5/5 139/5/5 132/5/5
f 143/5/5 142/5/5 141/5/5
f 143/5/5 141/5/5 140/5/5
f 144/5/5 142/5/5 143/5/5
f 145/5/5 132/5/5 124/5/5
f 145/5/5 124/5/5 118/5/5
f 145/5/5 143/5/5 132/5/5
f 146/5/5 143/5/5 145/5/5
f 147/8/5 144/8/5 143/8/5
f 147/5/5 143/5/5 146/5/5
f 148/5/5 142/5/5 144/5/5
f 148/8/5 144/8/5 147/8/5
f 149/5/5 142/5/5 148/5/5
f 150/5/5 142/5/5 149/5/5
f 151/8/5 146/8/5 145/8/5
f 152/5/5 147/5/5 146/5/5
f 152/8/5 146/8/5 151/8/5
f 152/5/5 148/5/5 147/5/5
f 152/5/5 149/5/5 148/5/5
f 153/5/5 149/5/5 152/5/5
f 154/5/5 149/5/5 153/5/5
f 155/8/5 150/8/5 149/8/5
f 155/5/5 149/5/5 154/5/5
f 156/5/5 142/5/5 150/5/5
f 156/8/5 150/8/5 155/8/5
f 157/5/5 152/5/5 151/5/5
f 157/5/5 153/5/5 152/5/5
f 158/5/5 153/5/5 157/5/5
f 159/11/5 154/11/5 153/11/5
f 159/5/5 153/5/5 158/5/5
f 160/5/5 155/5/5 154/5/5
f 160/11/5 154/11/5 159/11/5
f 160/5/5 156/5/5 155/5/5
f 161/5/5 156/5/5 160/5/5
f 162/5/5 156/5/5 161/5/5
f 163/5/5 142/5/5 156/5/5
f 163/5/5 156/5/5 162/5/5
f 164/5/5 138/5/5 142/5/5
f 164/5/5 142/5/5 163/5/5
f 165/5/5 123/5/5 138/5/5
f 165/5/5 138/5/5 164/5/5
f 166/5/5 123/5/5 165/5/5
f 167/8/5 158/8/5 157/8/5
f 168/5/5 159/5/5 158/5/5
f 168/8/5 158/8/5 167/8/5
f 168/5/5 160/5/5 159/5/5
f 168/5/5 161/5/5 160/5/5
f 169/8/5 162/8/5 161/8/5
f 169/5/5 161/5/5 168/5/5
f 170/5/5 163/5/5 162/5/5
f 170/8/5 162/8/5 169/8/5
f 171/11/5 164/11/5 163/11/5
f 171/5/5 163/5/5 170/5/5
f 172/5/5 165/5/5 164/5/5
f 172/11/5 164/11/5 171/11/5
f 173/8/5 166/8/5 165/8/5
f 173/5/5 165/5/5 172/5/5
f 174/8/5 166/8/5 173/8/5
f 175/5/5 169/5/5 168/5/5
f 175/5/5 170/5/5 169/5/5
f 175/5/5 168/5/5 167/5/5
f 175/8/5 172/8/5 171/8/5
f 175/5/5 171/5/5 170/5/5
f 176/5/5 174/5/5 173/5/5
f 176/8/5 172/8/5 175/8/5
f 176/5/5 173/5/5 172/5/5
f 177/5/5 175/5/5 167/5/5
f 177/5/5 176/5/5 175/5/5
f 178/5/5 176/5/5 177/5/5
f 179/5/5 176/5/5 178/5/5
f 180/5/5 176/5/5 179/5/5
f 181/5/5 177/5/5 167/5/5
f 182/8/5 178/8/5 177/8/5
f 182/5/5 177/5/5 181/5/5
f 183/5/5 179/5/5 178/5/5
f 183/8/5 178/8/5 182/8/5
f 184/12/5 180/12/5 179/12/5
f 184/5/5 179/5/5 183/5/5
f 185/5/5 176/5/5 180/5/5
f 185/12/5 180/12/5 184/12/5
f 186/5/5 181/5/5 167/5/5
f 187/11/5 182/11/5 181/11/5
f 187/5/5 181/5/5 186/5/5
f 188/5/5 184/5/5 183/5/5
f 188/11/5 182/11/5 187/11/5
f 188/5/5 183/5/5 182/5/5
f 189/8/5 185/8/5 184/8/5
f 189/5/5 184/5/5 188/5/5
f 190/5/5 176/5/5 185/5/5
f 190/8/5 185/8/5 189/8/5
f 191/8/5 187/8/5 186/8/5
f 192/3/5 188/3/5 187/3/5
f 192/8/5 187/8/5 191/8/5
f 193/5/5 189/5/5 188/5/5
f 193/3/5 188/3/5 192/3/5
f 193/5/5 190/5/5 189/5/5
f 194/5/5 176/5/5 190/5/5
f 194/5/5 190/5/5 193/5/5
f 195/5/5 176/5/5 194/5/5
f 196/5/5 176/5/5 195/5/5
f 197/5/5 176/5/5 196/5/5
f 198/5/5 193/5/5 192/5/5
f 198/5/5 192/5/5 191/5/5
f 198/5/5 194/5/5 193/5/5
f 199/5/5 194/5/5 198/5/5
f 200/8/5 195/8/5 194/8/5
f 200/5/5 194/5/5 199/5/5
f 201/5/5 196/5/5 195/5/5
f 201/8/5 195/8/5 200/8/5
f 202/11/5 197/11/5 196/11/5
f 202/5/5 196/5/5 201/5/5
f 203/5/5 176/5/5 197/5/5
f 203/11/5 197/11/5 202/11/5
f 204/5/5 174/5/5 176/5/5
f 204/5/5 176/5/5 203/5/5
f 205/5/5 174/5/5 204/5/5
f 206/5/5 198/5/5 191/5/5
f 207/8/5 199/8/5 198/8/5
f 207/5/5 198/5/5 206/5/5
f 208/5/5 203/5/5 202/5/5
f 208/8/5 199/8/5 207/8/5
f 208/5/5 202/5/5 201/5/5
f 208/5/5 201/5/5 200/5/5
f 208/5/5 204/5/5 203/5/5
f 208/5/5 200/5/5 199/5/5
f 209/8/5 205/8/5 204/8/5
f 209/5/5 204/5/5 208/5/5
f 210/8/5 205/8/5 209/8/5
f 211/8/6 212/8/6 221/8/6
f 212/5/6 213/5/6 222/5/6
f 221/8/6 212/8/6 222/8/6
f 222/5/6 213/5/6 223/5/6
f 223/5/6 213/5/6 224/5/6
f 224/5/6 213/5/6 225/5/6
f 225/5/6 213/5/6 226/5/6
f 226/5/6 213/5/6 227/5/6
f 227/5/6 213/5/6 228/5/6
f 213/8/6 214/8/6 229/8/6
f 228/5/6 213/5/6 229/5/6
f 214/5/6 215/5/6 230/5/6
f 229/8/6 214/8/6 230/8/6
f 215/8/6 216/8/6 231/8/6
f 230/5/6 215/5/6 231/5/6
f 216/5/6 217/5/6 232/5/6
f 231/8/6 216/8/6 232/8/6
f 232/5/6 217/5/6 233/5/6
f 233/5/6 217/5/6 234/5/6
f 217/11/6 218/11/6 235/11/6
f 234/5/6 217/5/6 235/5/6
f 218/5/6 219/5/6 236/5/6
f 235/11/6 218/11/6 236/11/6
f 236/5/6 219/5/6 237/5/6
f 237/5/6 219/5/6 238/5/6
f 238/5/6 219/5/6 239/5/6
f 219/8/6 220/8/6 240/8/6
f 239/5/6 219/5/6 240/5/6
f 240/8/6 220/8/6 241/8/6
f 221/5/6 222/5/6 242/5/6
f 222/5/6 223/5/6 242/5/6
f 223/11/6 224/11/6 242/11/6
f 224/5/6 225/5/6 243/5/6
f 242/11/6 224/11/6 243/11/6
f 225/8/6 226/8/6 244/8/6
f 243/5/6 225/5/6 244/5/6
f 226/5/6 227/5/6 245/5/6
f 244/8/6 226/8/6 245/8/6
f 227/11/6 228/11/6 246/11/6
f 245/5/6 227/5/6 246/5/6
f 228/5/6 229/5/6 247/5/6
f 246/11/6 228/11/6 247/11/6
f 229/5/6 230/5/6 247/5/6
f 230/5/6 231/5/6 247/5/6
f 231/5/6 232/5/6 247/5/6
f 232/5/6 233/5/6 247/5/6
f 247/5/6 233/5/6 248/5/6
f 248/5/6 233/5/6 249/5/6
f 249/5/6 233/5/6 250/5/6
f 250/5/6 233/5/6 251/5/6
f 233/11/6 234/11/6 252/11/6
f 251/5/6 233/5/6 252/5/6
f 234/5/6 235/5/6 253/5/6
f 252/11/6 234/11/6 253/11/6
f 235/5/6 236/5/6 253/5/6
f 236/11/6 237/11/6 254/11/6
f 253/5/6 236/5/6 254/5/6
f 237/5/6 238/5/6 255/5/6
f 254/11/6 237/11/6 255/11/6
f 238/11/6 239/11/6 256/11/6
f 255/5/6 238/5/6 256/5/6
f 240/5/6 241/5/6 257/5/6
f 256/11/6 239/11/6 257/11/6
f 239/5/6 240/5/6 257/5/6
f 244/5/6 245/5/6 258/5/6
f 245/5/6 246/5/6 258/5/6
f 221/5/6 242/5/6 258/5/6
f 247/5/6 248/5/6 258/5/6
f 246/5/6 247/5/6 258/5/6
f 242/5/6 243/5/6 258/5/6
f 243/5/6 244/5/6 258/5/6
f 258/5/6 248/5/6 259/5/6
f 259/5/6 248/5/6 260/5/6
f 260/5/6 248/5/6 261/5/6
f 261/5/6 248/5/6 262/5/6
f 262/5/6 248/5/6 263/5/6
f 248/11/6 249/11/6 264/11/6
f 263/5/6 248/5/6 264/5/6
f 249/5/6 250/5/6 265/5/6
f 264/11/6 249/11/6 265/11/6
f 250/3/6 251/3/6 266/3/6
f 265/5/6 250/5/6 266/5/6
f 254/5/6 255/5/6 267/5/6
f 266/3/6 251/3/6 267/3/6
f 256/5/6 257/5/6 267/5/6
f 253/5/6 254/5/6 267/5/6
f 252/5/6 253/5/6 267/5/6
f 251/5/6 252/5/6 267/5/6
f 255/5/6 256/5/6 267/5/6
f 267/5/6 257/5/6 268/5/6
f 268/5/6 257/5/6 269/5/6
f 269/5/6 257/5/6 270/5/6
f 270/5/6 257/5/6 271/5/6
f 258/11/6 259/11/6 272/11/6
f 259/5/6 260/5/6 273/5/6
f 272/11/6 259/11/6 273/11/6
f 260/9/6 261/9/6 274/9/6
f 273/5/6 260/5/6 274/5/6
f 261/5/6 262/5/6 275/5/6
f 274/9/6 261/9/6 275/9/6
f 275/5/6 262/5/6 276/5/6
f 276/5/6 262/5/6 277/5/6
f 262/8/6 263/8/6 278/8/6
f 277/5/6 262/5/6 278/5/6
f 265/5/6 266/5/6 279/5/6
f 278/8/6 263/8/6 279/8/6
f 264/5/6 265/5/6 279/5/6
f 263/5/6 264/5/6 279/5/6
f 279/5/6 266/5/6 280/5/6
f 266/11/6 267/11/6 281/11/6
f 280/5/6 266/5/6 281/5/6
f 267/5/6 268/5/6 282/5/6
f 281/11/6 267/11/6 282/11/6
f 282/5/6 268/5/6 283/5/6
f 283/5/6 268/5/6 284/5/6
f 284/5/6 268/5/6 285/5/6
f 268/8/6 269/8/6 286/8/6
f 285/5/6 268/5/6 286/5/6
f 269/5/6 270/5/6 287/5/6
f 286/8/6 269/8/6 287/8/6
f 270/11/6 271/11/6 288/11/6
f 287/5/6 270/5/6 288/5/6
f 271/5/6 257/5/6 289/5/6
f 288/11/6 271/11/6 289/11/6
f 257/5/6 241/5/6 290/5/6
f 289/5/6 257/5/6 290/5/6
f 290/5/6 241/5/6 291/5/6
f 273/5/6 274/5/6 292/5/6
f 272/5/6 273/5/6 292/5/6
f 275/5/6 276/5/6 292/5/6
f 276/4/6 277/4/6 292/4/6
f 274/5/6 275/5/6 292/5/6
f 277/5/6 278/5/6 293/5/6
f 292/4/6 277/4/6 293/4/6
f 293/5/6 278/5/6 294/5/6
f 278/12/6 279/12/6 295/12/6
f 294/5/6 278/5/6 295/5/6
f 279/5/6 280/5/6 296/5/6
f 295/12/6 279/12/6 296/12/6
f 296/5/6 280/5/6 297/5/6
f 297/5/6 280/5/6 298/5/6
f 280/8/6 281/8/6 299/8/6
f 298/5/6 280/5/6 299/5/6
f 281/5/6 282/5/6 300/5/6
f 299/8/6 281/8/6 300/8/6
f 282/8/6 283/8/6 301/8/6
f 300/5/6 282/5/6 301/5/6
f 283/5/6 284/5/6 302/5/6
f 301/8/6 283/8/6 302/8/6
f 284/11/6 285/11/6 303/11/6
f 302/5/6 284/5/6 303/5/6
f 285/5/6 286/5/6 304/5/6
f 303/11/6 285/11/6 304/11/6
f 286/12/6 287/12/6 305/12/6
f 304/5/6 286/5/6 305/5/6
f 288/5/6 289/5/6 306/5/6
f 305/12/6 287/12/6 306/12/6
f 289/5/6 290/5/6 306/5/6
f 287/5/6 288/5/6 306/5/6
f 290/9/6 291/9/6 307/9/6
f 306/5/6 290/5/6 307/5/6
f 291/5/6 241/5/6 308/5/6
f 307/9/6 291/9/6 308/9/6
f 272/5/6 292/5/6 309/5/6
f 292/5/6 293/5/6 309/5/6
f 309/5/6 293/5/6 310/5/6
f 293/11/6 294/11/6 311/11/6
f 310/5/6 293/5/6 311/5/6
f 296/5/6 297/5/6 312/5/6
f 311/11/6 294/11/6 312/11/6
f 295/5/6 296/5/6 312/5/6
f 294/5/6 295/5/6 312/5/6
f 297/11/6 298/11/6 313/11/6
f 312/5/6 297/5/6 313/5/6
f 304/5/6 305/5/6 314/5/6
f 313/11/6 298/11/6 314/11/6
f 306/5/6 307/5/6 314/5/6
f 298/5/6 299/5/6 314/5/6
f 305/5/6 306/5/6 314/5/6
f 303/5/6 304/5/6 314/5/6
f 302/5/6 303/5/6 314/5/6
f 301/5/6 302/5/6 314/5/6
f 300/5/6 301/5/6 314/5/6
f 307/5/6 308/5/6 314/5/6
f 299/5/6 300/5/6 314/5/6
f 308/5/6 241/5/6 315/5/6
f 314/5/6 308/5/6 315/5/6
f 315/5/6 241/5/6 316/5/6
f 272/5/6 309/5/6 317/5/6
f 317/5/6 309/5/6 318/5/6
f 309/8/6 310/8/6 319/8/6
f 318/5/6 309/5/6 319/5/6
f 313/5/6 314/5/6 320/5/6
f 319/8/6 310/8/6 320/8/6
f 312/5/6 313/5/6 320/5/6
f 311/5/6 312/5/6 320/5/6
f 310/5/6 311/5/6 320/5/6
f 314/5/6 315/5/6 320/5/6
f 320/5/6 315/5/6 321/5/6
f 321/5/6 315/5/6 322/5/6
f 322/5/6 315/5/6 323/5/6
f 323/5/6 315/5/6 324/5/6
f 324/5/6 315/5/6 325/5/6
f 325/5/6 315/5/6 326/5/6
f 326/5/6 315/5/6 327/5/6
f 327/5/6 315/5/6 328/5/6
f 315/8/6 316/8/6 329/8/6
f 328/5/6 315/5/6 329/5/6
f 316/5/6 241/5/6 330/5/6
f 329/8/6 316/8/6 330/8/6
f 330/5/6 241/5/6 331/5/6
f 331/5/6 241/5/6 332/5/6
f 317/8/6 318/8/6 333/8/6
f 318/5/6 319/5/6 334/5/6
f 333/8/6 318/8/6 334/8/6
f 319/11/6 320/11/6 335/11/6
f 334/5/6 319/5/6 335/5/6
f 320/5/6 321/5/6 336/5/6
f 335/11/6 320/11/6 336/11/6
f 321/8/6 322/8/6 337/8/6
f 336/5/6 321/5/6 337/5/6
f 322/5/6 323/5/6 338/5/6
f 337/8/6 322/8/6 338/8/6
f 338/5/6 323/5/6 339/5/6
f 339/5/6 323/5/6 340/5/6
f 323/11/6 324/11/6 341/11/6
f 340/5/6 323/5/6 341/5/6
f 324/5/6 325/5/6 342/5/6
f 341/11/6 324/11/6 342/11/6
f 342/5/6 325/5/6 343/5/6
f 343/5/6 325/5/6 344/5/6
f 325/8/6 326/8/6 345/8/6
f 344/5/6 325/5/6 345/5/6
f 326/5/6 327/5/6 346/5/6
f 345/8/6 326/8/6 346/8/6
f 327/4/6 328/4/6 347/4/6
f 346/5/6 327/5/6 347/5/6
f 328/5/6 329/5/6 348/5/6
f 347/4/6 328/4/6 348/4/6
f 329/11/6 330/11/6 349/11/6
f 348/5/6 329/5/6 349/5/6
f 330/5/6 331/5/6 350/5/6
f 349/11/6 330/11/6 350/11/6
f 331/8/6 332/8/6 351/8/6
f 350/5/6 331/5/6 351/5/6
f 351/8/6 332/8/6 352/8/6
f 333/5/6 334/5/6 353/5/6
f 334/5/6 335/5/6 353/5/6
f 335/5/6 336/5/6 353/5/6
f 336/5/6 337/5/6 353/5/6
f 337/5/6 338/5/6 353/5/6
f 338/5/6 339/5/6 353/5/6
f 353/5/6 339/5/6 354/5/6
f 339/11/6 340/11/6 355/11/6
f 354/5/6 339/5/6 355/5/6
f 342/5/6 343/5/6 356/5/6
f 355/11/6 340/11/6 356/11/6
f 340/5/6 341/5/6 356/5/6
f 341/5/6 342/5/6 356/5/6
f 343/11/6 344/11/6 357/11/6
f 356/5/6 343/5/6 357/5/6
f 345/5/6 346/5/6 358/5/6
f 357/11/6 344/11/6 358/11/6
f 346/5/6 347/5/6 358/5/6
f 349/5/6 350/5/6 358/5/6
f 348/5/6 349/5/6 358/5/6
f 347/5/6 348/5/6 358/5/6
f 344/5/6 345/5/6 358/5/6
f 351/5/6 352/5/6 358/5/6
f 350/5/6 351/5/6 358/5/6
f 358/5/6 352/5/6 359/5/6
f 359/5/6 352/5/6 360/5/6
f 333/5/6 353/5/6 361/5/6
f 361/5/6 353/5/6 362/5/6
f 353/8/6 354/8/6 363/8/6
f 362/5/6 353/5/6 363/5/6
f 356/5/6 357/5/6 364/5/6
f 363/8/6 354/8/6 364/8/6
f 355/5/6 356/5/6 364/5/6
f 354/5/6 355/5/6 364/5/6
f 357/5/6 358/5/6 364/5/6
f 358/5/6 359/5/6 364/5/6
f 364/5/6 359/5/6 365/5/6
f 365/5/6 359/5/6 366/5/6
f 366/5/6 359/5/6 367/5/6
f 367/5/6 359/5/6 368/5/6
f 368/5/6 359/5/6 369/5/6
f 369/5/6 359/5/6 370/5/6
f 359/8/6 360/8/6 371/8/6
f 370/5/6 359/5/6 371/5/6
f 360/5/6 352/5/6 372/5/6
f 371/8/6 360/8/6 372/8/6
f 333/5/6 361/5/6 373/5/6
f 361/2/6 362/2/6 373/2/6
f 362/5/6 363/5/6 374/5/6
f 373/2/6 362/2/6 374/2/6
f 363/5/6 364/5/6 374/5/6
f 364/5/6 365/5/6 374/5/6
f 374/5/6 365/5/6 375/5/6
f 375/5/6 365/5/6 376/5/6
f 365/9/6 366/9/6 377/9/6
f 376/5/6 365/5/6 377/5/6
f 366/5/6 367/5/6 378/5/6
f 377/9/6 366/9/6 378/9/6
f 367/8/6 368/8/6 379/8/6
f 378/5/6 367/5/6 379/5/6
f 368/5/6 369/5/6 380/5/6
f 379/8/6 368/8/6 380/8/6
f 380/5/6 369/5/6 381/5/6
f 381/5/6 369/5/6 382/5/6
f 382/5/6 369/5/6 383/5/6
f 383/5/6 369/5/6 384/5/6
f 369/8/6 370/8/6 385/8/6
f 384/5/6 369/5/6 385/5/6
f 370/5/6 371/5/6 386/5/6
f 385/8/6 370/8/6 386/8/6
f 371/5/6 372/5/6 386/5/6
f 386/5/6 372/5/6 387/5/6
f 387/5/6 372/5/6 388/5/6
f 372/5/6 352/5/6 389/5/6
f 388/5/6 372/5/6 389/5/6
f 389/5/6 352/5/6 390/5/6
f 333/5/6 373/5/6 391/5/6
f 373/5/6 374/5/6 391/5/6
f 374/5/6 375/5/6 391/5/6
f 391/5/6 375/5/6 392/5/6
f 375/10/6 376/10/6 393/10/6
f 392/5/6 375/5/6 393/5/6
f 378/5/6 379/5/6 394/5/6
f 393/10/6 376/10/6 394/10/6
f 377/5/6 378/5/6 394/5/6
f 376/5/6 377/5/6 394/5/6
f 379/5/6 380/5/6 394/5/6
f 380/5/6 381/5/6 394/5/6
f 381/11/6 382/11/6 395/11/6
f 394/5/6 381/5/6 395/5/6
f 382/5/6 383/5/6 396/5/6
f 395/11/6 382/11/6 396/11/6
f 383/2/6 384/2/6 397/2/6
f 396/5/6 383/5/6 397/5/6
f 384/5/6 385/5/6 398/5/6
f 397/2/6 384/2/6 398/2/6
f 386/5/6 387/5/6 398/5/6
f 385/5/6 386/5/6 398/5/6
f 387/11/6 388/11/6 399/11/6
f 398/5/6 387/5/6 399/5/6
f 388/5/6 389/5/6 400/5/6
f 399/11/6 388/11/6 400/11/6
f 389/2/6 390/2/6 401/2/6
f 400/5/6 389/5/6 401/5/6
f 390/5/6 352/5/6 402/5/6
f 401/2/6 390/2/6 402/2/6
f 333/5/6 391/5/6 403/5/6
f 391/1/6 392/1/6 403/1/6
f 392/5/6 393/5/6 404/5/6
f 403/1/6 392/1/6 404/1/6
f 404/5/6 393/5/6 405/5/6
f 405/5/6 393/5/6 406/5/6
f 406/5/6 393/5/6 407/5/6
f 393/11/6 394/11/6 408/11/6
f 407/5/6 393/5/6 408/5/6
f 400/5/6 401/5/6 409/5/6
f 408/11/6 394/11/6 409/11/6
f 397/5/6 398/5/6 409/5/6
f 396/5/6 397/5/6 409/5/6
f 394/5/6 395/5/6 409/5/6
f 395/5/6 396/5/6 409/5/6
f 398/5/6 399/5/6 409/5/6
f 399/5/6 400/5/6 409/5/6
f 401/5/6 402/5/6 409/5/6
f 409/5/6 402/5/6 410/5/6
f 410/5/6 402/5/6 411/5/6
f 411/5/6 402/5/6 412/5/6
f 412/5/6 402/5/6 413/5/6
f 402/5/6 352/5/6 414/5/6
f 413/5/6 402/5/6 414/5/6
f 414/5/6 352/5/6 415/5/6
f 404/5/6 405/5/6 416/5/6
f 403/5/6 404/5/6 416/5/6
f 405/12/6 406/12/6 417/12/6
f 416/5/6 405/5/6 417/5/6
f 406/5/6 407/5/6 418/5/6
f 417/12/6 406/12/6 418/12/6
f 407/9/6 408/9/6 419/9/6
f 418/5/6 407/5/6 419/5/6
f 408/5/6 409/5/6 420/5/6
f 419/9/6 408/9/6 420/9/6
f 409/5/6 410/5/6 420/5/6
f 420/5/6 410/5/6 421/5/6
f 410/8/6 411/8/6 422/8/6
f 421/5/6 410/5/6 422/5/6
f 411/5/6 412/5/6 423/5/6
f 422/8/6 411/8/6 423/8/6
f 423/5/6 412/5/6 424/5/6
f 424/5/6 412/5/6 425/5/6
f 425/5/6 412/5/6 426/5/6
f 426/5/6 412/5/6 427/5/6
f 427/5/6 412/5/6 428/5/6
f 428/5/6 412/5/6 429/5/6
f 412/8/6 413/8/6 430/8/6
f 429/5/6 412/5/6 430/5/6
f 413/5/6 414/5/6 431/5/6
f 430/8/6 413/8/6 431/8/6
f 414/12/6 415/12/6 432/12/6
f 431/5/6 414/5/6 432/5/6
f 415/5/6 352/5/6 433/5/6
f 432/12/6 415/12/6 433/12/6
f 433/5/6 352/5/6 434/5/6
f 403/5/6 416/5/6 435/5/6
f 416/9/6 417/9/6 435/9/6
f 417/5/6 418/5/6 436/5/6
f 435/9/6 417/9/6 436/9/6
f 418/5/6 419/5/6 436/5/6
f 420/5/6 421/5/6 436/5/6
f 419/5/6 420/5/6 436/5/6
f 421/6/6 422/6/6 437/6/6
f 436/5/6 421/5/6 437/5/6
f 422/5/6 423/5/6 438/5/6
f 437/6/6 422/6/6 438/6/6
f 423/5/6 424/5/6 438/5/6
f 438/5/6 424/5/6 439/5/6
f 424/11/6 425/11/6 440/11/6
f 439/5/6 424/5/6 440/5/6
f 425/5/6 426/5/6 441/5/6
f 440/11/6 425/11/6 441/11/6
f 426/9/6 427/9/6 442/9/6
f 441/5/6 426/5/6 442/5/6
f 427/5/6 428/5/6 443/5/6
f 442/9/6 427/9/6 443/9/6
f 443/5/6 428/5/6 444/5/6
f 428/11/6 429/11/6 445/11/6
f 444/5/6 428/5/6 445/5/6
f 431/5/6 432/5/6 446/5/6
f 445/11/6 429/11/6 446/11/6
f 430/5/6 431/5/6 446/5/6
f 432/5/6 433/5/6 446/5/6
f 429/5/6 430/5/6 446/5/6
f 446/5/6 433/5/6 447/5/6
f 447/5/6 433/5/6 448/5/6
f 448/5/6 433/5/6 449/5/6
f 449/5/6 433/5/6 450/5/6
f 450/5/6 433/5/6 451/5/6
f 433/9/6 434/9/6 452/9/6
f 451/5/6 433/5/6 452/5/6
f 434/5/6 352/5/6 453/5/6
f 452/9/6 434/9/6 453/9/6
f 437/5/6 438/5/6 454/5/6
f 435/5/6 436/5/6 454/5/6
f 436/5/6 437/5/6 454/5/6
f 454/5/6 438/5/6 455/5/6
f 442/12/6 443/12/6 456/12/6
f 441/5/6 442/5/6 456/5/6
f 440/5/6 441/5/6 456/5/6
f 439/5/6 440/5/6 456/5/6
f 443/11/6 444/11/6 457/11/6
f 456/12/6 443/12/6 457/12/6
f 444/5/6 445/5/6 458/5/6
f 445/7/6 446/7/6 458/7/6
f 446/5/6 447/5/6 459/5/6
f 458/7/6 446/7/6 459/7/6
f 448/6/6 449/6/6 460/6/6
f 447/8/6 448/8/6 460/8/6
f 449/5/6 450/5/6 461/5/6
f 460/6/6 449/6/6 461/6/6
f 450/11/6 451/11/6 462/11/6
f 461/5/6 450/5/6 462/5/6
f 451/5/6 452/5/6 463/5/6
f 462/11/6 451/11/6 463/11/6
f 452/5/6 453/5/6 463/5/6
f 403/5/6 435/5/6 464/5/6
f 435/5/6 454/5/6 464/5/6
f 464/5/6 454/5/6 465/5/6
f 454/2/6 455/2/6 466/2/6
f 465/5/6 454/5/6 466/5/6
f 455/5/6 438/5/6 467/5/6
f 466/2/6 455/2/6 467/2/6
f 438/8/6 439/8/6 468/8/6
f 467/5/6 438/5/6 468/5/6
f 439/5/6 456/5/6 469/5/6
f 468/8/6 439/8/6 469/8/6
f 469/5/6 456/5/6 470/5/6
f 470/5/6 456/5/6 471/5/6
f 456/11/6 457/11/6 472/11/6
f 471/5/6 456/5/6 472/5/6
f 457/11/6 444/11/6 473/11/6
f 472/11/6 457/11/6 473/11/6
f 458/5/6 459/5/6 474/5/6
f 473/11/6 444/11/6 474/11/6
f 444/5/6 458/5/6 474/5/6
f 474/5/6 459/5/6 475/5/6
f 459/5/6 447/5/6 476/5/6
f 475/5/6 459/5/6 476/5/6
f 447/8/6 460/8/6 477/8/6
f 476/5/6 447/5/6 477/5/6
f 461/5/6 462/5/6 478/5/6
f 477/8/6 460/8/6 478/8/6
f 460/5/6 461/5/6 478/5/6
f 462/5/6 463/5/6 478/5/6
f 478/5/6 463/5/6 479/5/6
f 479/5/6 463/5/6 480/5/6
f 463/5/6 453/5/6 481/5/6
f 480/5/6 463/5/6 481/5/6
f 453/5/6 352/5/6 482/5/6
f 481/5/6 453/5/6 482/5/6
f 464/9/6 465/9/6 483/9/6
f 403/5/6 464/5/6 483/5/6
f 465/5/6 466/5/6 484/5/6
f 483/9/6 465/9/6 484/9/6
f 467/5/6 468/5/6 484/5/6
f 466/5/6 467/5/6 484/5/6
f 468/5/6 469/5/6 484/5/6
f 469/5/6 470/5/6 484/5/6
f 484/5/6 470/5/6 485/5/6
f 485/5/6 470/5/6 486/5/6
f 486/5/6 470/5/6 487/5/6
f 470/11/6 471/11/6 488/11/6
f 487/5/6 470/5/6 488/5/6
f 471/5/6 472/5/6 489/5/6
f 488/11/6 471/11/6 489/11/6
f 472/5/6 473/5/6 489/5/6
f 473/9/6 474/9/6 490/9/6
f 489/5/6 473/5/6 490/5/6
f 474/5/6 475/5/6 491/5/6
f 490/9/6 474/9/6 491/9/6
f 475/11/6 476/11/6 492/11/6
f 491/5/6 475/5/6 492/5/6
f 476/5/6 477/5/6 493/5/6
f 492/11/6 476/11/6 493/11/6
f 478/5/6 479/5/6 493/5/6
f 477/5/6 478/5/6 493/5/6
f 493/5/6 479/5/6 494/5/6
f 494/5/6 479/5/6 495/5/6
f 479/11/6 480/11/6 496/11/6
f 495/5/6 479/5/6 496/5/6
f 480/5/6 481/5/6 497/5/6
f 496/11/6 480/11/6 497/11/6
f 497/5/6 481/5/6 498/5/6
f 481/9/6 482/9/6 499/9/6
f 498/5/6 481/5/6 499/5/6
f 482/5/6 352/5/6 500/5/6
f 499/9/6 482/9/6 500/9/6
f 484/12/6 485/12/6 501/12/6
f 483/5/6 484/5/6 501/5/6
f 485/5/6 486/5/6 502/5/6
f 501/12/6 485/12/6 502/12/6
f 502/5/6 486/5/6 503/5/6
f 503/5/6 486/5/6 504/5/6
f 486/8/6 487/8/6 505/8/6
f 504/5/6 486/5/6 505/5/6
f 491/5/6 492/5/6 506/5/6
f 505/8/6 487/8/6 506/8/6
f 487/5/6 488/5/6 506/5/6
f 488/5/6 489/5/6 506/5/6
f 490/5/6 491/5/6 506/5/6
f 489/5/6 490/5/6 506/5/6
f 493/5/6 494/5/6 506/5/6
f 492/5/6 493/5/6 506/5/6
f 506/5/6 494/5/6 507/5/6
f 507/5/6 494/5/6 508/5/6
f 494/8/6 495/8/6 509/8/6
f 508/5/6 494/5/6 509/5/6
f 495/5/6 496/5/6 510/5/6
f 509/8/6 495/8/6 510/8/6
f 497/5/6 498/5/6 510/5/6
f 496/5/6 497/5/6 510/5/6
f 498/12/6 499/12/6 511/12/6
f 510/5/6 498/5/6 511/5/6
f 499/5/6 500/5/6 512/5/6
f 511/12/6 499/12/6 512/12/6
f 502/5/6 503/5/6 513/5/6
f 501/5/6 502/5/6 513/5/6
f 483/5/6 501/5/6 513/5/6
f 513/5/6 503/5/6 514/5/6
f 503/11/6 504/11/6 515/11/6
f 514/5/6 503/5/6 515/5/6
f 504/5/6 505/5/6 516/5/6
f 515/11/6 504/11/6 516/11/6
f 506/5/6 507/5/6 516/5/6
f 505/5/6 506/5/6 516/5/6
f 507/9/6 508/9/6 517/9/6
f 516/5/6 507/5/6 517/5/6
f 511/5/6 512/5/6 518/5/6
f 517/9/6 508/9/6 518/9/6
f 508/5/6 509/5/6 518/5/6
f 510/5/6 511/5/6 518/5/6
f 509/5/6 510/5/6 518/5/6
f 515/5/6 516/5/6 519/5/6
f 514/5/6 515/5/6 519/5/6
f 517/5/6 518/5/6 519/5/6
f 516/5/6 517/5/6 519/5/6
f 519/5/6 518/5/6 520/5/6
f 520/5/6 518/5/6 521/5/6
f 518/5/6 512/5/6 522/5/6
f 521/5/6 518/5/6 522/5/6
f 522/5/6 512/5/6 523/5/6
f 523/5/6 512/5/6 524/5/6
f 524/5/6 512/5/6 525/5/6
f 512/5/6 500/5/6 526/5/6
f 525/5/6 512/5/6 526/5/6
f 513/11/6 514/11/6 527/11/6
f 483/5/6 513/5/6 527/5/6
f 514/5/6 519/5/6 528/5/6
f 527/11/6 514/11/6 528/11/6
f 528/5/6 519/5/6 529/5/6
f 529/5/6 519/5/6 530/5/6
f 530/5/6 519/5/6 531/5/6
f 519/8/6 520/8/6 532/8/6
f 531/5/6 519/5/6 532/5/6
f 520/5/6 521/5/6 533/5/6
f 532/8/6 520/8/6 533/8/6
f 521/11/6 522/11/6 534/11/6
f 533/5/6 521/5/6 534/5/6
f 522/5/6 523/5/6 535/5/6
f 534/11/6 522/11/6 535/11/6
f 523/8/6 524/8/6 536/8/6
f 535/5/6 523/5/6 536/5/6
f 524/5/6 525/5/6 537/5/6
f 536/8/6 524/8/6 537/8/6
f 537/5/6 525/5/6 538/5/6
f 538/5/6 525/5/6 539/5/6
f 525/11/6 526/11/6 540/11/6
f 539/5/6 525/5/6 540/5/6
f 526/5/6 500/5/6 541/5/6
f 540/11/6 526/11/6 541/11/6
f 527/5/6 528/5/6 542/5/6
f 528/5/6 529/5/6 542/5/6
f 529/8/6 530/8/6 542/8/6
f 530/7/6 531/7/6 543/7/6
f 542/8/6 530/8/6 543/8/6
f 531/5/6 532/5/6 544/5/6
f 535/5/6 536/5/6 544/5/6
f 532/5/6 533/5/6 544/5/6
f 536/5/6 537/5/6 544/5/6
f 537/5/6 538/5/6 544/5/6
f 533/5/6 534/5/6 544/5/6
f 534/5/6 535/5/6 544/5/6
f 544/5/6 538/5/6 545/5/6
f 545/5/6 538/5/6 546/5/6
f 546/5/6 538/5/6 547/5/6
f 547/5/6 538/5/6 548/5/6
f 548/5/6 538/5/6 549/5/6
f 538/8/6 539/8/6 550/8/6
f 549/5/6 538/5/6 550/5/6
f 539/5/6 540/5/6 551/5/6
f 550/8/6 539/8/6 551/8/6
f 540/5/6 541/5/6 551/5/6
f 551/5/6 541/5/6 552/5/6
f 552/5/6 541/5/6 553/5/6
f 542/5/6 543/5/6 554/5/6
f 403/5/6 483/5/6 554/5/6
f 333/5/6 403/5/6 554/5/6
f 483/5/6 527/5/6 554/5/6
f 527/5/6 542/5/6 554/5/6
f 554/5/6 543/5/6 555/5/6
f 555/5/6 543/5/6 556/5/6
f 556/5/6 543/5/6 557/5/6
f 543/7/6 531/7/6 558/7/6
f 557/5/6 543/5/6 558/5/6
f 531/5/6 544/5/6 559/5/6
f 558/7/6 531/7/6 559/7/6
f 559/5/6 544/5/6 560/5/6
f 560/5/6 544/5/6 561/5/6
f 544/11/6 545/11/6 562/11/6
f 561/5/6 544/5/6 562/5/6
f 545/5/6 546/5/6 563/5/6
f 562/11/6 545/11/6 563/11/6
f 563/5/6 546/5/6 564/5/6
f 564/5/6 546/5/6 565/5/6
f 546/4/6 547/4/6 566/4/6
f 565/5/6 546/5/6 566/5/6
f 547/5/6 548/5/6 567/5/6
f 566/4/6 547/4/6 567/4/6
f 548/11/6 549/11/6 568/11/6
f 567/5/6 548/5/6 568/5/6
f 549/5/6 550/5/6 569/5/6
f 568/11/6 549/11/6 569/11/6
f 551/5/6 552/5/6 569/5/6
f 550/5/6 551/5/6 569/5/6
f 569/5/6 552/5/6 570/5/6
f 570/5/6 552/5/6 571/5/6
f 552/11/6 553/11/6 572/11/6
f 571/5/6 552/5/6 572/5/6
f 553/5/6 541/5/6 573/5/6
f 572/11/6 553/11/6 573/11/6
f 573/5/6 541/5/6 574/5/6
f 541/5/6 500/5/6 575/5/6
f 574/5/6 541/5/6 575/5/6
f 500/5/6 352/5/6 576/5/6
f 575/5/6 500/5/6 576/5/6
f 576/5/6 352/5/6 577/5/6
f 554/8/6 555/8/6 578/8/6
f 555/5/6 556/5/6 579/5/6
f 578/8/6 555/8/6 579/8/6
f 556/11/6 557/11/6 580/11/6
f 579/5/6 556/5/6 580/5/6
f 557/5/6 558/5/6 581/5/6
f 580/11/6 557/11/6 581/11/6
f 558/5/6 559/5/6 581/5/6
f 559/5/6 560/5/6 581/5/6
f 560/8/6 561/8/6 582/8/6
f 581/5/6 560/5/6 582/5/6
f 563/5/6 564/5/6 583/5/6
f 582/8/6 561/8/6 583/8/6
f 562/5/6 563/5/6 583/5/6
f 561/5/6 562/5/6 583/5/6
f 564/11/6 565/11/6 584/11/6
f 583/5/6 564/5/6 584/5/6
f 567/5/6 568/5/6 585/5/6
f 584/11/6 565/11/6 585/11/6
f 566/5/6 567/5/6 585/5/6
f 568/5/6 569/5/6 585/5/6
f 565/5/6 566/5/6 585/5/6
f 569/5/6 570/5/6 585/5/6
f 585/5/6 570/5/6 586/5/6
f 586/5/6 570/5/6 587/5/6
f 570/8/6 571/8/6 588/8/6
f 587/5/6 570/5/6 588/5/6
f 571/5/6 572/5/6 589/5/6
f 588/8/6 571/8/6 589/8/6
f 572/5/6 573/5/6 589/5/6
f 573/5/6 574/5/6 589/5/6
f 589/5/6 574/5/6 590/5/6
f 590/5/6 574/5/6 591/5/6
f 574/11/6 575/11/6 592/11/6
f 591/5/6 574/5/6 592/5/6
f 575/5/6 576/5/6 593/5/6
f 592/11/6 575/11/6 593/11/6
f 576/8/6 577/8/6 594/8/6
f 593/5/6 576/5/6 594/5/6
f 594/8/6 577/8/6 595/8/6
f 578/5/6 579/5/6 596/5/6
f 579/5/6 580/5/6 596/5/6
f 580/8/6 581/8/6 596/8/6
f 583/5/6 584/5/6 597/5/6
f 596/8/6 581/8/6 597/8/6
f 581/5/6 582/5/6 597/5/6
f 585/5/6 586/5/6 597/5/6
f 582/5/6 583/5/6 597/5/6
f 584/5/6 585/5/6 597/5/6
f 586/11/6 587/11/6 598/11/6
f 597/5/6 586/5/6 598/5/6
f 587/5/6 588/5/6 599/5/6
f 598/11/6 587/11/6 599/11/6
f 588/11/6 589/11/6 600/11/6
f 599/5/6 588/5/6 600/5/6
f 589/5/6 590/5/6 601/5/6
f 600/11/6 589/11/6 601/11/6
f 590/11/6 591/11/6 602/11/6
f 601/5/6 590/5/6 602/5/6
f 591/5/6 592/5/6 603/5/6
f 602/11/6 591/11/6 603/11/6
f 603/5/6 592/5/6 604/5/6
f 592/8/6 593/8/6 605/8/6
f 604/5/6 592/5/6 605/5/6
f 594/5/6 595/5/6 606/5/6
f 605/8/6 593/8/6 606/8/6
f 593/5/6 594/5/6 606/5/6
f 578/5/6 596/5/6 607/5/6
f 597/5/6 598/5/6 607/5/6
f 596/5/6 597/5/6 607/5/6
f 601/5/6 602/5/6 607/5/6
f 602/5/6 603/5/6 607/5/6
f 599/5/6 600/5/6 607/5/6
f 600/5/6 601/5/6 607/5/6
f 603/5/6 604/5/6 607/5/6
f 598/5/6 599/5/6 607/5/6
f 607/5/6 604/5/6 608/5/6
f 608/5/6 604/5/6 609/5/6
f 609/5/6 604/5/6 610/5/6
f 610/5/6 604/5/6 611/5/6
f 611/5/6 604/5/6 612/5/6
f 612/5/6 604/5/6 613/5/6
f 613/5/6 604/5/6 614/5/6
f 614/5/6 604/5/6 615/5/6
f 615/5/6 604/5/6 616/5/6
f 616/5/6 604/5/6 617/5/6
f 617/5/6 604/5/6 618/5/6
f 618/5/6 604/5/6 619/5/6
f 619/5/6 604/5/6 620/5/6
f 620/5/6 604/5/6 621/5/6
f 604/11/6 605/11/6 622/11/6
f 621/5/6 604/5/6 622/5/6
f 605/5/6 606/5/6 623/5/6
f 622/11/6 605/11/6 623/11/6
f 606/5/6 595/5/6 624/5/6
f 623/5/6 606/5/6 624/5/6
f 624/5/6 595/5/6 625/5/6
f 578/5/6 607/5/6 626/5/6
f 607/4/6 608/4/6 626/4/6
f 608/5/6 609/5/6 627/5/6
f 626/4/6 608/4/6 627/4/6
f 627/5/6 609/5/6 628/5/6
f 609/2/6 610/2/6 629/2/6
f 628/5/6 609/5/6 629/5/6
f 610/11/6 611/11/6 630/11/6
f 629/2/6 610/2/6 630/2/6
f 611/5/6 612/5/6 631/5/6
f 630/11/6 611/11/6 631/11/6
f 612/12/6 613/12/6 632/12/6
f 631/5/6 612/5/6 632/5/6
f 613/5/6 614/5/6 633/5/6
f 632/12/6 613/12/6 633/12/6
f 614/8/6 615/8/6 634/8/6
f 633/5/6 614/5/6 634/5/6
f 615/5/6 616/5/6 635/5/6
f 634/8/6 615/8/6 635/8/6
f 616/8/6 617/8/6 636/8/6
f 635/5/6 616/5/6 636/5/6
f 617/5/6 618/5/6 637/5/6
f 636/8/6 617/8/6 637/8/6
f 637/5/6 618/5/6 638/5/6
f 638/5/6 618/5/6 639/5/6
f 618/12/6 619/12/6 640/12/6
f 639/5/6 618/5/6 640/5/6
f 619/5/6 620/5/6 641/5/6
f 640/12/6 619/12/6 641/12/6
f 620/11/6 621/11/6 642/11/6
f 641/5/6 620/5/6 642/5/6
f 622/5/6 623/5/6 643/5/6
f 642/11/6 621/11/6 643/11/6
f 621/5/6 622/5/6 643/5/6
f 623/5/6 624/5/6 643/5/6
f 624/11/6 625/11/6 644/11/6
f 643/5/6 624/5/6 644/5/6
f 644/11/6 625/11/6 645/11/6
f 627/5/6 628/5/6 646/5/6
f 628/13/6 629/13/6 646/13/6
f 626/5/6 627/5/6 646/5/6
f 629/5/6 630/5/6 647/5/6
f 646/13/6 629/13/6 647/13/6
f 630/5/6 631/5/6 647/5/6
f 631/5/6 632/5/6 647/5/6
f 632/8/6 633/8/6 648/8/6
f 647/5/6 632/5/6 648/5/6
f 633/5/6 634/5/6 649/5/6
f 648/8/6 633/8/6 649/8/6
f 634/5/6 635/5/6 649/5/6
f 649/5/6 635/5/6 650/5/6
f 650/5/6 635/5/6 651/5/6
f 635/11/6 636/11/6 652/11/6
f 637/5/6 638/5/6 653/5/6
f 652/11/6 636/11/6 653/11/6
f 636/5/6 637/5/6 653/5/6
f 638/11/6 639/11/6 654/11/6
f 653/5/6 638/5/6 654/5/6
f 639/5/6 640/5/6 655/5/6
f 654/11/6 639/11/6 655/11/6
f 640/8/6 641/8/6 656/8/6
f 655/5/6 640/5/6 656/5/6
f 641/5/6 642/5/6 657/5/6
f 656/8/6 641/8/6 657/8/6
f 642/5/6 643/5/6 657/5/6
f 644/5/6 645/5/6 657/5/6
f 643/5/6 644/5/6 657/5/6
f 657/5/6 645/5/6 658/5/6
f 658/5/6 645/5/6 659/5/6
f 659/5/6 645/5/6 660/5/6
f 660/5/6 645/5/6 661/5/6
f 649/5/6 650/5/6 662/5/6
f 648/5/6 649/5/6 662/5/6
f 646/5/6 647/5/6 662/5/6
f 647/5/6 648/5/6 662/5/6
f 662/5/6 650/5/6 663/5/6
f 663/5/6 650/5/6 664/5/6
f 664/5/6 650/5/6 665/5/6
f 650/11/6 651/11/6 666/11/6
f 665/5/6 650/5/6 666/5/6
f 651/5/6 635/5/6 667/5/6
f 666/11/6 651/11/6 667/11/6
f 635/11/6 652/11/6 668/11/6
f 667/5/6 635/5/6 668/5/6
f 652/3/6 653/3/6 669/3/6
f 668/11/6 652/11/6 669/11/6
f 655/5/6 656/5/6 670/5/6
f 669/3/6 653/3/6 670/3/6
f 654/5/6 655/5/6 670/5/6
f 653/5/6 654/5/6 670/5/6
f 656/5/6 657/5/6 670/5/6
f 657/5/6 658/5/6 670/5/6
f 670/5/6 658/5/6 671/5/6
f 671/5/6 658/5/6 672/5/6
f 672/5/6 658/5/6 673/5/6
f 673/5/6 658/5/6 674/5/6
f 658/11/6 659/11/6 675/11/6
f 674/5/6 658/5/6 675/5/6
f 659/5/6 660/5/6 676/5/6
f 675/11/6 659/11/6 676/11/6
f 660/11/6 661/11/6 677/11/6
f 676/5/6 660/5/6 677/5/6
f 661/5/6 645/5/6 678/5/6
f 677/11/6 661/11/6 678/11/6
f 578/5/6 626/5/6 679/5/6
f 626/5/6 646/5/6 679/5/6
f 646/5/6 662/5/6 679/5/6
f 679/5/6 662/5/6 680/5/6
f 662/11/6 663/11/6 681/11/6
f 680/5/6 662/5/6 681/5/6
f 663/5/6 664/5/6 682/5/6
f 681/11/6 663/11/6 682/11/6
f 664/8/6 665/8/6 683/8/6
f 682/5/6 664/5/6 683/5/6
f 668/5/6 669/5/6 684/5/6
f 683/8/6 665/8/6 684/8/6
f 666/5/6 667/5/6 684/5/6
f 667/5/6 668/5/6 684/5/6
f 665/5/6 666/5/6 684/5/6
f 670/5/6 671/5/6 684/5/6
f 669/5/6 670/5/6 684/5/6
f 684/5/6 671/5/6 685/5/6
f 685/5/6 671/5/6 686/5/6
f 686/5/6 671/5/6 687/5/6
f 687/5/6 671/5/6 688/5/6
f 688/5/6 671/5/6 689/5/6
f 689/5/6 671/5/6 690/5/6
f 690/5/6 671/5/6 691/5/6
f 691/5/6 671/5/6 692/5/6
f 671/8/6 672/8/6 693/8/6
f 692/5/6 671/5/6 693/5/6
f 672/5/6 673/5/6 694/5/6
f 693/8/6 672/8/6 694/8/6
f 673/11/6 674/11/6 695/11/6
f 694/5/6 673/5/6 695/5/6
f 676/5/6 677/5/6 696/5/6
f 695/11/6 674/11/6 696/11/6
f 675/5/6 676/5/6 696/5/6
f 677/5/6 678/5/6 696/5/6
f 674/5/6 675/5/6 696/5/6
f 696/5/6 678/5/6 697/5/6
f 678/5/6 645/5/6 698/5/6
f 697/5/6 678/5/6 698/5/6
f 679/8/6 680/8/6 699/8/6
f 682/5/6 683/5/6 700/5/6
f 699/8/6 680/8/6 700/8/6
f 680/5/6 681/5/6 700/5/6
f 681/5/6 682/5/6 700/5/6
f 683/5/6 684/5/6 700/5/6
f 684/5/6 685/5/6 700/5/6
f 685/11/6 686/11/6 701/11/6
f 700/5/6 685/5/6 701/5/6
f 686/5/6 687/5/6 702/5/6
f 701/11/6 686/11/6 702/11/6
f 687/8/6 688/8/6 703/8/6
f 702/5/6 687/5/6 703/5/6
f 688/5/6 689/5/6 704/5/6
f 703/8/6 688/8/6 704/8/6
f 689/8/6 690/8/6 705/8/6
f 704/5/6 689/5/6 705/5/6
f 690/5/6 691/5/6 706/5/6
f 705/8/6 690/8/6 706/8/6
f 691/11/6 692/11/6 707/11/6
f 706/5/6 691/5/6 707/5/6
f 694/5/6 695/5/6 708/5/6
f 707/11/6 692/11/6 708/11/6
f 696/5/6 697/5/6 708/5/6
f 695/5/6 696/5/6 708/5/6
f 693/5/6 694/5/6 708/5/6
f 692/5/6 693/5/6 708/5/6
f 697/8/6 698/8/6 709/8/6
f 708/5/6 697/5/6 709/5/6
f 709/8/6 698/8/6 710/8/6
