# MagicaVoxel @ Ephtracy

# group
g D-Mon

# material
mtllib D-Mon.mtl
usemtl palette

# normals
vn -1 0 0
vn 1 0 0
vn 0 0 1
vn 0 0 -1
vn 0 -1 0
vn 0 1 0

# texcoords
vt 0.0917969 0.5
vt 0.845703 0.5
vt 0.958984 0.5
vt 0.994141 0.5

# verts
v -17 17 1
v -17 17 -0
v -17 17 -1
v -17 17 -2
v -17 18 1
v -17 18 -0
v -17 18 -1
v -17 18 -2
v -14 16 1
v -14 16 -2
v -14 17 1
v -14 17 -0
v -14 17 -1
v -14 17 -2
v -12 16 4
v -12 16 1
v -12 17 4
v -12 17 1
v -12 17 -0
v -12 17 -1
v -12 18 -0
v -12 18 -1
v -11 16 -0
v -11 16 -1
v -11 17 -0
v -11 17 -1
v -7 0 2
v -7 0 1
v -7 1 2
v -7 1 1
v -7 16 1
v -7 16 -0
v -7 16 -2
v -7 16 -3
v -7 18 1
v -7 18 -0
v -7 18 -2
v -7 18 -3
v -7 24 -1
v -7 24 -3
v -7 25 -3
v -7 25 -4
v -7 27 -3
v -7 27 -4
v -7 28 -1
v -7 28 -3
v -6 0 1
v -6 0 -1
v -6 1 1
v -6 1 -0
v -6 2 -0
v -6 2 -1
v -6 15 1
v -6 15 -3
v -6 16 1
v -6 16 -3
v -6 20 2
v -6 20 -6
v -6 24 -1
v -6 24 -3
v -6 25 -3
v -6 25 -4
v -6 27 -3
v -6 27 -4
v -6 28 -1
v -6 28 -3
v -6 30 2
v -6 30 1
v -6 30 -2
v -6 30 -6
v -6 31 -1
v -6 31 -2
v -6 33 1
v -6 33 -0
v -6 33 -1
v -6 33 -2
v -6 34 -0
v -6 34 -2
v -5 0 2
v -5 0 1
v -5 0 -1
v -5 0 -2
v -5 1 2
v -5 1 1
v -5 1 -0
v -5 1 -2
v -5 1 -3
v -5 2 1
v -5 2 -0
v -5 2 -1
v -5 2 -3
v -5 2 -4
v -5 3 -0
v -5 3 -1
v -5 4 -1
v -5 4 -2
v -5 6 -0
v -5 6 -2
v -5 7 -3
v -5 7 -4
v -5 8 -2
v -5 8 -3
v -5 9 -0
v -5 9 -2
v -5 21 6
v -5 21 2
v -5 22 5
v -5 22 3
v -5 23 6
v -5 23 5
v -5 23 3
v -5 23 2
v -5 25 3
v -5 25 2
v -5 27 3
v -5 27 2
v -5 28 3
v -5 28 2
v -5 34 -0
v -5 34 -2
v -5 35 -0
v -5 35 -2
v -4 9 -0
v -4 9 -2
v -4 11 -0
v -4 11 -2
v -4 13 2
v -4 13 -0
v -4 13 -2
v -4 13 -4
v -4 15 1
v -4 15 -3
v -4 18 1
v -4 18 -3
v -4 19 2
v -4 19 -4
v -4 28 3
v -4 28 2
v -4 29 3
v -4 29 2
v -3 19 -0
v -3 19 -2
v -3 20 -0
v -3 20 -2
v -3 22 5
v -3 22 4
v -3 22 3
v -3 23 3
v -3 25 5
v -3 25 3
v -2 0 2
v -2 0 1
v -2 1 2
v -2 1 1
v -2 19 1
v -2 19 -0
v -2 19 -2
v -2 19 -3
v -2 20 4
v -2 20 2
v -2 20 1
v -2 20 -0
v -2 20 -2
v -2 20 -3
v -2 21 3
v -2 21 2
v -2 22 4
v -2 22 3
v -1 23 5
v -1 23 4
v -1 24 5
v -1 24 4
v 1 0 2
v 1 0 1
v 1 1 2
v 1 1 1
v 2 0 1
v 2 0 -1
v 2 1 1
v 2 1 -0
v 2 2 -0
v 2 2 -1
v 2 9 -0
v 2 9 -2
v 2 11 -0
v 2 11 -2
v 2 13 -0
v 2 13 -2
v 2 23 5
v 2 23 4
v 2 24 5
v 2 24 4
v 3 0 2
v 3 0 1
v 3 0 -1
v 3 0 -2
v 3 1 2
v 3 1 1
v 3 1 -0
v 3 1 -2
v 3 1 -3
v 3 2 1
v 3 2 -0
v 3 2 -1
v 3 2 -3
v 3 2 -4
v 3 3 -0
v 3 3 -1
v 3 4 -1
v 3 4 -2
v 3 6 -0
v 3 6 -2
v 3 7 -3
v 3 7 -4
v 3 8 -2
v 3 8 -3
v 3 9 -0
v 3 9 -2
v 3 21 4
v 3 21 3
v 3 22 4
v 3 22 3
v 3 30 1
v 3 30 -2
v 3 31 -1
v 3 31 -2
v 3 33 1
v 3 33 -0
v 3 33 -1
v 3 33 -2
v 3 34 -0
v 3 34 -2
v 4 21 6
v 4 21 4
v 4 22 5
v 4 22 4
v 4 23 6
v 4 23 5
v 4 34 -0
v 4 34 -2
v 4 35 -0
v 4 35 -2
v 6 0 2
v 6 0 1
v 6 1 2
v 6 1 1
v 10 16 1
v 10 16 -0
v 10 18 1
v 10 18 -0
v 11 16 4
v 11 16 1
v 11 17 4
v 11 17 1
v 13 16 -0
v 13 16 -1
v 13 17 -0
v 13 17 -1
v -13 16 -0
v -13 16 -1
v -13 17 -0
v -13 17 -1
v -11 16 4
v -11 16 1
v -11 17 4
v -11 17 1
v -10 16 1
v -10 16 -0
v -10 18 1
v -10 18 -0
v -6 0 2
v -6 0 1
v -6 1 2
v -6 1 1
v -4 21 6
v -4 21 4
v -4 22 5
v -4 22 4
v -4 23 6
v -4 23 5
v -4 34 -0
v -4 34 -2
v -4 35 -0
v -4 35 -2
v -3 0 2
v -3 0 1
v -3 0 -1
v -3 0 -2
v -3 1 2
v -3 1 1
v -3 1 -0
v -3 1 -2
v -3 1 -3
v -3 2 1
v -3 2 -0
v -3 2 -1
v -3 2 -3
v -3 2 -4
v -3 3 -0
v -3 3 -1
v -3 4 -1
v -3 4 -2
v -3 6 -0
v -3 6 -2
v -3 7 -3
v -3 7 -4
v -3 8 -2
v -3 8 -3
v -3 9 -0
v -3 9 -2
v -3 21 4
v -3 21 3
v -3 22 4
v -3 22 3
v -3 30 1
v -3 30 -2
v -3 31 -1
v -3 31 -2
v -3 33 1
v -3 33 -0
v -3 33 -1
v -3 33 -2
v -3 34 -0
v -3 34 -2
v -2 0 1
v -2 0 -1
v -2 1 1
v -2 1 -0
v -2 2 -0
v -2 2 -1
v -2 9 -0
v -2 9 -2
v -2 11 -0
v -2 11 -2
v -2 13 -0
v -2 13 -2
v -2 23 5
v -2 23 4
v -2 24 5
v -2 24 4
v -1 0 2
v -1 0 1
v -1 1 2
v -1 1 1
v 1 23 5
v 1 23 4
v 1 24 5
v 1 24 4
v 2 0 2
v 2 0 1
v 2 1 2
v 2 1 1
v 2 19 1
v 2 19 -0
v 2 19 -2
v 2 19 -3
v 2 20 4
v 2 20 2
v 2 20 1
v 2 20 -0
v 2 20 -2
v 2 20 -3
v 2 21 3
v 2 21 2
v 2 22 4
v 2 22 3
v 3 19 -0
v 3 19 -2
v 3 20 -0
v 3 20 -2
v 3 22 5
v 3 22 4
v 3 22 3
v 3 23 3
v 3 25 5
v 3 25 3
v 4 9 -0
v 4 9 -2
v 4 11 -0
v 4 11 -2
v 4 13 2
v 4 13 -0
v 4 13 -2
v 4 13 -4
v 4 15 1
v 4 15 -3
v 4 18 1
v 4 18 -3
v 4 19 2
v 4 19 -4
v 4 28 3
v 4 28 2
v 4 29 3
v 4 29 2
v 5 0 2
v 5 0 1
v 5 0 -1
v 5 0 -2
v 5 1 2
v 5 1 1
v 5 1 -0
v 5 1 -2
v 5 1 -3
v 5 2 1
v 5 2 -0
v 5 2 -1
v 5 2 -3
v 5 2 -4
v 5 3 -0
v 5 3 -1
v 5 4 -1
v 5 4 -2
v 5 6 -0
v 5 6 -2
v 5 7 -3
v 5 7 -4
v 5 8 -2
v 5 8 -3
v 5 9 -0
v 5 9 -2
v 5 21 6
v 5 21 2
v 5 22 5
v 5 22 3
v 5 23 6
v 5 23 5
v 5 23 3
v 5 23 2
v 5 25 3
v 5 25 2
v 5 27 3
v 5 27 2
v 5 28 3
v 5 28 2
v 5 34 -0
v 5 34 -2
v 5 35 -0
v 5 35 -2
v 6 0 1
v 6 0 -1
v 6 1 1
v 6 1 -0
v 6 2 -0
v 6 2 -1
v 6 15 1
v 6 15 -3
v 6 16 1
v 6 16 -3
v 6 20 2
v 6 20 -6
v 6 24 -1
v 6 24 -3
v 6 25 -3
v 6 25 -4
v 6 27 -3
v 6 27 -4
v 6 28 -1
v 6 28 -3
v 6 30 2
v 6 30 1
v 6 30 -2
v 6 30 -6
v 6 31 -1
v 6 31 -2
v 6 33 1
v 6 33 -0
v 6 33 -1
v 6 33 -2
v 6 34 -0
v 6 34 -2
v 7 0 2
v 7 0 1
v 7 1 2
v 7 1 1
v 7 16 1
v 7 16 -0
v 7 16 -2
v 7 16 -3
v 7 18 1
v 7 18 -0
v 7 18 -2
v 7 18 -3
v 7 24 -1
v 7 24 -3
v 7 25 -3
v 7 25 -4
v 7 27 -3
v 7 27 -4
v 7 28 -1
v 7 28 -3
v 11 16 -0
v 11 16 -1
v 11 17 -0
v 11 17 -1
v 12 16 4
v 12 16 1
v 12 17 4
v 12 17 1
v 12 17 -0
v 12 17 -1
v 12 18 -0
v 12 18 -1
v 14 16 1
v 14 16 -2
v 14 17 1
v 14 17 -0
v 14 17 -1
v 14 17 -2
v 17 17 1
v 17 17 -0
v 17 17 -1
v 17 17 -2
v 17 18 1
v 17 18 -0
v 17 18 -1
v 17 18 -2
v -5 21 6
v -5 23 6
v -4 21 6
v -4 23 6
v 4 21 6
v 4 23 6
v 5 21 6
v 5 23 6
v -3 22 5
v -3 25 5
v -2 23 5
v -2 24 5
v -1 23 5
v -1 24 5
v 1 23 5
v 1 24 5
v 2 23 5
v 2 24 5
v 3 22 5
v 3 25 5
v -12 16 4
v -12 17 4
v -11 16 4
v -11 17 4
v -4 21 4
v -4 22 4
v -3 21 4
v -3 22 4
v -2 20 4
v -2 22 4
v -2 23 4
v -2 24 4
v -1 23 4
v -1 24 4
v 1 23 4
v 1 24 4
v 2 20 4
v 2 22 4
v 2 23 4
v 2 24 4
v 3 21 4
v 3 22 4
v 4 21 4
v 4 22 4
v 11 16 4
v 11 17 4
v 12 16 4
v 12 17 4
v -5 22 3
v -5 23 3
v -5 25 3
v -5 27 3
v -5 28 3
v -4 28 3
v -4 29 3
v -3 21 3
v -3 22 3
v -3 23 3
v -3 25 3
v -2 21 3
v -2 22 3
v 2 21 3
v 2 22 3
v 3 21 3
v 3 22 3
v 3 23 3
v 3 25 3
v 4 28 3
v 4 29 3
v 5 22 3
v 5 23 3
v 5 25 3
v 5 27 3
v 5 28 3
v -7 0 2
v -7 1 2
v -6 0 2
v -6 1 2
v -6 20 2
v -6 30 2
v -5 0 2
v -5 1 2
v -5 21 2
v -5 23 2
v -5 25 2
v -5 27 2
v -5 28 2
v -4 13 2
v -4 19 2
v -4 25 2
v -4 26 2
v -4 28 2
v -4 29 2
v -3 0 2
v -3 1 2
v -3 21 2
v -3 25 2
v -3 26 2
v -2 0 2
v -2 1 2
v -2 20 2
v -2 21 2
v -2 25 2
v -2 27 2
v -1 0 2
v -1 1 2
v 1 0 2
v 1 1 2
v 2 0 2
v 2 1 2
v 2 20 2
v 2 21 2
v 2 25 2
v 2 27 2
v 3 0 2
v 3 1 2
v 3 21 2
v 3 25 2
v 3 26 2
v 4 13 2
v 4 19 2
v 4 25 2
v 4 26 2
v 4 28 2
v 4 29 2
v 5 0 2
v 5 1 2
v 5 21 2
v 5 23 2
v 5 25 2
v 5 27 2
v 5 28 2
v 6 0 2
v 6 1 2
v 6 20 2
v 6 30 2
v 7 0 2
v 7 1 2
v -17 17 1
v -17 18 1
v -14 16 1
v -14 17 1
v -12 16 1
v -12 17 1
v -11 16 1
v -11 17 1
v -10 16 1
v -10 18 1
v -7 16 1
v -7 18 1
v -6 0 1
v -6 1 1
v -6 15 1
v -6 16 1
v -6 30 1
v -6 33 1
v -5 0 1
v -5 1 1
v -5 2 1
v -4 15 1
v -4 18 1
v -3 0 1
v -3 1 1
v -3 2 1
v -3 30 1
v -3 33 1
v -2 0 1
v -2 1 1
v -2 19 1
v -2 20 1
v 2 0 1
v 2 1 1
v 2 19 1
v 2 20 1
v 3 0 1
v 3 1 1
v 3 2 1
v 3 30 1
v 3 33 1
v 4 15 1
v 4 18 1
v 5 0 1
v 5 1 1
v 5 2 1
v 6 0 1
v 6 1 1
v 6 15 1
v 6 16 1
v 6 30 1
v 6 33 1
v 7 16 1
v 7 18 1
v 10 16 1
v 10 18 1
v 11 16 1
v 11 17 1
v 12 16 1
v 12 17 1
v 14 16 1
v 14 17 1
v 17 17 1
v 17 18 1
v -10 16 -0
v -10 18 -0
v -7 16 -0
v -7 18 -0
v -6 1 -0
v -6 2 -0
v -6 33 -0
v -6 34 -0
v -5 1 -0
v -5 2 -0
v -5 3 -0
v -5 6 -0
v -5 9 -0
v -5 34 -0
v -5 35 -0
v -4 9 -0
v -4 11 -0
v -4 13 -0
v -4 34 -0
v -4 35 -0
v -3 1 -0
v -3 2 -0
v -3 3 -0
v -3 6 -0
v -3 9 -0
v -3 19 -0
v -3 20 -0
v -3 33 -0
v -3 34 -0
v -2 1 -0
v -2 2 -0
v -2 9 -0
v -2 11 -0
v -2 13 -0
v -2 19 -0
v -2 20 -0
v 2 1 -0
v 2 2 -0
v 2 9 -0
v 2 11 -0
v 2 13 -0
v 2 19 -0
v 2 20 -0
v 3 1 -0
v 3 2 -0
v 3 3 -0
v 3 6 -0
v 3 9 -0
v 3 19 -0
v 3 20 -0
v 3 33 -0
v 3 34 -0
v 4 9 -0
v 4 11 -0
v 4 13 -0
v 4 34 -0
v 4 35 -0
v 5 1 -0
v 5 2 -0
v 5 3 -0
v 5 6 -0
v 5 9 -0
v 5 34 -0
v 5 35 -0
v 6 1 -0
v 6 2 -0
v 6 33 -0
v 6 34 -0
v 7 16 -0
v 7 18 -0
v 10 16 -0
v 10 18 -0
v -17 17 -1
v -17 18 -1
v -14 17 -1
v -13 16 -1
v -13 17 -1
v -12 17 -1
v -12 18 -1
v -11 16 -1
v -11 17 -1
v -7 24 -1
v -7 28 -1
v -6 24 -1
v -6 28 -1
v -5 3 -1
v -5 4 -1
v -3 3 -1
v -3 4 -1
v 3 3 -1
v 3 4 -1
v 5 3 -1
v 5 4 -1
v 6 24 -1
v 6 28 -1
v 7 24 -1
v 7 28 -1
v 11 16 -1
v 11 17 -1
v 12 17 -1
v 12 18 -1
v 13 16 -1
v 13 17 -1
v 14 17 -1
v 17 17 -1
v 17 18 -1
v -5 4 -2
v -5 6 -2
v -3 4 -2
v -3 6 -2
v 3 4 -2
v 3 6 -2
v 5 4 -2
v 5 6 -2
v -5 22 5
v -5 23 5
v -4 22 5
v -4 23 5
v 4 22 5
v 4 23 5
v 5 22 5
v 5 23 5
v -7 0 1
v -7 1 1
v -6 0 1
v -6 1 1
v -2 0 1
v -2 1 1
v -1 0 1
v -1 1 1
v 1 0 1
v 1 1 1
v 2 0 1
v 2 1 1
v 6 0 1
v 6 1 1
v 7 0 1
v 7 1 1
v -17 17 -0
v -17 18 -0
v -14 17 -0
v -13 16 -0
v -13 17 -0
v -12 17 -0
v -12 18 -0
v -11 16 -0
v -11 17 -0
v 11 16 -0
v 11 17 -0
v 12 17 -0
v 12 18 -0
v 13 16 -0
v 13 17 -0
v 14 17 -0
v 17 17 -0
v 17 18 -0
v -6 0 -1
v -6 2 -1
v -6 31 -1
v -6 33 -1
v -5 0 -1
v -5 2 -1
v -3 0 -1
v -3 2 -1
v -3 31 -1
v -3 33 -1
v -2 0 -1
v -2 2 -1
v 2 0 -1
v 2 2 -1
v 3 0 -1
v 3 2 -1
v 3 31 -1
v 3 33 -1
v 5 0 -1
v 5 2 -1
v 6 0 -1
v 6 2 -1
v 6 31 -1
v 6 33 -1
v -17 17 -2
v -17 18 -2
v -14 16 -2
v -14 17 -2
v -7 16 -2
v -7 18 -2
v -6 30 -2
v -6 31 -2
v -6 33 -2
v -6 34 -2
v -5 0 -2
v -5 1 -2
v -5 8 -2
v -5 9 -2
v -5 34 -2
v -5 35 -2
v -4 9 -2
v -4 11 -2
v -4 13 -2
v -4 34 -2
v -4 35 -2
v -3 0 -2
v -3 1 -2
v -3 8 -2
v -3 9 -2
v -3 19 -2
v -3 20 -2
v -3 30 -2
v -3 31 -2
v -3 33 -2
v -3 34 -2
v -2 9 -2
v -2 11 -2
v -2 13 -2
v -2 19 -2
v -2 20 -2
v 2 9 -2
v 2 11 -2
v 2 13 -2
v 2 19 -2
v 2 20 -2
v 3 0 -2
v 3 1 -2
v 3 8 -2
v 3 9 -2
v 3 19 -2
v 3 20 -2
v 3 30 -2
v 3 31 -2
v 3 33 -2
v 3 34 -2
v 4 9 -2
v 4 11 -2
v 4 13 -2
v 4 34 -2
v 4 35 -2
v 5 0 -2
v 5 1 -2
v 5 8 -2
v 5 9 -2
v 5 34 -2
v 5 35 -2
v 6 30 -2
v 6 31 -2
v 6 33 -2
v 6 34 -2
v 7 16 -2
v 7 18 -2
v 14 16 -2
v 14 17 -2
v 17 17 -2
v 17 18 -2
v -7 16 -3
v -7 18 -3
v -7 24 -3
v -7 25 -3
v -7 27 -3
v -7 28 -3
v -6 15 -3
v -6 16 -3
v -6 24 -3
v -6 25 -3
v -6 27 -3
v -6 28 -3
v -5 1 -3
v -5 2 -3
v -5 7 -3
v -5 8 -3
v -4 15 -3
v -4 18 -3
v -3 1 -3
v -3 2 -3
v -3 7 -3
v -3 8 -3
v -2 19 -3
v -2 20 -3
v 2 19 -3
v 2 20 -3
v 3 1 -3
v 3 2 -3
v 3 7 -3
v 3 8 -3
v 4 15 -3
v 4 18 -3
v 5 1 -3
v 5 2 -3
v 5 7 -3
v 5 8 -3
v 6 15 -3
v 6 16 -3
v 6 24 -3
v 6 25 -3
v 6 27 -3
v 6 28 -3
v 7 16 -3
v 7 18 -3
v 7 24 -3
v 7 25 -3
v 7 27 -3
v 7 28 -3
v -7 25 -4
v -7 27 -4
v -6 25 -4
v -6 27 -4
v -5 2 -4
v -5 7 -4
v -4 13 -4
v -4 19 -4
v -3 2 -4
v -3 7 -4
v 3 2 -4
v 3 7 -4
v 4 13 -4
v 4 19 -4
v 5 2 -4
v 5 7 -4
v 6 25 -4
v 6 27 -4
v 7 25 -4
v 7 27 -4
v -6 20 -6
v -6 30 -6
v 6 20 -6
v 6 30 -6
v -7 0 2
v -6 0 2
v -5 0 2
v -3 0 2
v -2 0 2
v -1 0 2
v 1 0 2
v 2 0 2
v 3 0 2
v 5 0 2
v 6 0 2
v 7 0 2
v -7 0 1
v -6 0 1
v -5 0 1
v -3 0 1
v -2 0 1
v -1 0 1
v 1 0 1
v 2 0 1
v 3 0 1
v 5 0 1
v 6 0 1
v 7 0 1
v -6 0 -1
v -5 0 -1
v -3 0 -1
v -2 0 -1
v 2 0 -1
v 3 0 -1
v 5 0 -1
v 6 0 -1
v -5 0 -2
v -3 0 -2
v 3 0 -2
v 5 0 -2
v -5 1 -2
v -3 1 -2
v 3 1 -2
v 5 1 -2
v -5 1 -3
v -3 1 -3
v 3 1 -3
v 5 1 -3
v -5 2 -3
v -3 2 -3
v 3 2 -3
v 5 2 -3
v -5 2 -4
v -3 2 -4
v 3 2 -4
v 5 2 -4
v -5 6 -0
v -3 6 -0
v 3 6 -0
v 5 6 -0
v -5 6 -2
v -3 6 -2
v 3 6 -2
v 5 6 -2
v -3 9 -0
v -2 9 -0
v 2 9 -0
v 3 9 -0
v -3 9 -2
v -2 9 -2
v 2 9 -2
v 3 9 -2
v -4 13 2
v 4 13 2
v -4 13 -0
v -2 13 -0
v 2 13 -0
v 4 13 -0
v -4 13 -2
v -2 13 -2
v 2 13 -2
v 4 13 -2
v -4 13 -4
v 4 13 -4
v -6 15 1
v -4 15 1
v 4 15 1
v 6 15 1
v -6 15 -3
v -4 15 -3
v 4 15 -3
v 6 15 -3
v -12 16 4
v -11 16 4
v 11 16 4
v 12 16 4
v -14 16 1
v -12 16 1
v -11 16 1
v -10 16 1
v -7 16 1
v -6 16 1
v 6 16 1
v 7 16 1
v 10 16 1
v 11 16 1
v 12 16 1
v 14 16 1
v -13 16 -0
v -11 16 -0
v -10 16 -0
v -7 16 -0
v 7 16 -0
v 10 16 -0
v 11 16 -0
v 13 16 -0
v -13 16 -1
v -11 16 -1
v 11 16 -1
v 13 16 -1
v -14 16 -2
v -7 16 -2
v 7 16 -2
v 14 16 -2
v -7 16 -3
v -6 16 -3
v 6 16 -3
v 7 16 -3
v -17 17 1
v -14 17 1
v 14 17 1
v 17 17 1
v -17 17 -0
v -14 17 -0
v -12 17 -0
v -11 17 -0
v 11 17 -0
v 12 17 -0
v 14 17 -0
v 17 17 -0
v -17 17 -1
v -14 17 -1
v -12 17 -1
v -11 17 -1
v 11 17 -1
v 12 17 -1
v 14 17 -1
v 17 17 -1
v -17 17 -2
v -14 17 -2
v 14 17 -2
v 17 17 -2
v -2 20 4
v 2 20 4
v -6 20 2
v -2 20 2
v 2 20 2
v 6 20 2
v -2 20 1
v 2 20 1
v -3 20 -0
v -2 20 -0
v 2 20 -0
v 3 20 -0
v -3 20 -2
v -2 20 -2
v 2 20 -2
v 3 20 -2
v -2 20 -3
v 2 20 -3
v -6 20 -6
v 6 20 -6
v -5 21 6
v -4 21 6
v 4 21 6
v 5 21 6
v -4 21 4
v -3 21 4
v 3 21 4
v 4 21 4
v -3 21 3
v -2 21 3
v 2 21 3
v 3 21 3
v -5 21 2
v -3 21 2
v -2 21 2
v 2 21 2
v 3 21 2
v 5 21 2
v -3 22 5
v 3 22 5
v -3 22 4
v -2 22 4
v 2 22 4
v 3 22 4
v -3 22 3
v -2 22 3
v 2 22 3
v 3 22 3
v -2 24 5
v -1 24 5
v 1 24 5
v 2 24 5
v -2 24 4
v -1 24 4
v 1 24 4
v 2 24 4
v -7 24 -1
v -6 24 -1
v 6 24 -1
v 7 24 -1
v -7 24 -3
v -6 24 -3
v 6 24 -3
v 7 24 -3
v -7 25 -3
v -6 25 -3
v 6 25 -3
v 7 25 -3
v -7 25 -4
v -6 25 -4
v 6 25 -4
v 7 25 -4
v -5 27 3
v 5 27 3
v -5 27 2
v -2 27 2
v 2 27 2
v 5 27 2
v -6 33 -1
v -3 33 -1
v 3 33 -1
v 6 33 -1
v -6 33 -2
v -3 33 -2
v 3 33 -2
v 6 33 -2
v -7 1 2
v -6 1 2
v -5 1 2
v -3 1 2
v -2 1 2
v -1 1 2
v 1 1 2
v 2 1 2
v 3 1 2
v 5 1 2
v 6 1 2
v 7 1 2
v -7 1 1
v -6 1 1
v -5 1 1
v -3 1 1
v -2 1 1
v -1 1 1
v 1 1 1
v 2 1 1
v 3 1 1
v 5 1 1
v 6 1 1
v 7 1 1
v -6 1 -0
v -5 1 -0
v -3 1 -0
v -2 1 -0
v 2 1 -0
v 3 1 -0
v 5 1 -0
v 6 1 -0
v -5 2 1
v -3 2 1
v 3 2 1
v 5 2 1
v -6 2 -0
v -5 2 -0
v -3 2 -0
v -2 2 -0
v 2 2 -0
v 3 2 -0
v 5 2 -0
v 6 2 -0
v -6 2 -1
v -5 2 -1
v -3 2 -1
v -2 2 -1
v 2 2 -1
v 3 2 -1
v 5 2 -1
v 6 2 -1
v -5 3 -0
v -3 3 -0
v 3 3 -0
v 5 3 -0
v -5 3 -1
v -3 3 -1
v 3 3 -1
v 5 3 -1
v -5 4 -1
v -3 4 -1
v 3 4 -1
v 5 4 -1
v -5 4 -2
v -3 4 -2
v 3 4 -2
v 5 4 -2
v -5 7 -3
v -3 7 -3
v 3 7 -3
v 5 7 -3
v -5 7 -4
v -3 7 -4
v 3 7 -4
v 5 7 -4
v -5 8 -2
v -3 8 -2
v 3 8 -2
v 5 8 -2
v -5 8 -3
v -3 8 -3
v 3 8 -3
v 5 8 -3
v -5 9 -0
v -4 9 -0
v 4 9 -0
v 5 9 -0
v -5 9 -2
v -4 9 -2
v 4 9 -2
v 5 9 -2
v -12 17 4
v -11 17 4
v 11 17 4
v 12 17 4
v -12 17 1
v -11 17 1
v 11 17 1
v 12 17 1
v -14 17 -0
v -13 17 -0
v 13 17 -0
v 14 17 -0
v -14 17 -1
v -13 17 -1
v 13 17 -1
v 14 17 -1
v -17 18 1
v -10 18 1
v -7 18 1
v -4 18 1
v 4 18 1
v 7 18 1
v 10 18 1
v 17 18 1
v -17 18 -0
v -12 18 -0
v -10 18 -0
v -7 18 -0
v 7 18 -0
v 10 18 -0
v 12 18 -0
v 17 18 -0
v -17 18 -1
v -12 18 -1
v 12 18 -1
v 17 18 -1
v -17 18 -2
v -7 18 -2
v 7 18 -2
v 17 18 -2
v -7 18 -3
v -4 18 -3
v 4 18 -3
v 7 18 -3
v -4 19 2
v 4 19 2
v -2 19 1
v 2 19 1
v -3 19 -0
v -2 19 -0
v 2 19 -0
v 3 19 -0
v -3 19 -2
v -2 19 -2
v 2 19 -2
v 3 19 -2
v -2 19 -3
v 2 19 -3
v -4 19 -4
v 4 19 -4
v -5 22 5
v -4 22 5
v 4 22 5
v 5 22 5
v -4 22 4
v -3 22 4
v 3 22 4
v 4 22 4
v -5 22 3
v -3 22 3
v 3 22 3
v 5 22 3
v -5 23 6
v -4 23 6
v 4 23 6
v 5 23 6
v -5 23 5
v -4 23 5
v -2 23 5
v -1 23 5
v 1 23 5
v 2 23 5
v 4 23 5
v 5 23 5
v -2 23 4
v -1 23 4
v 1 23 4
v 2 23 4
v -3 25 5
v 3 25 5
v -5 25 3
v -3 25 3
v 3 25 3
v 5 25 3
v -5 25 2
v -4 25 2
v -3 25 2
v -2 25 2
v 2 25 2
v 3 25 2
v 4 25 2
v 5 25 2
v -7 27 -3
v -6 27 -3
v 6 27 -3
v 7 27 -3
v -7 27 -4
v -6 27 -4
v 6 27 -4
v 7 27 -4
v -5 28 3
v -4 28 3
v 4 28 3
v 5 28 3
v -5 28 2
v -4 28 2
v 4 28 2
v 5 28 2
v -7 28 -1
v -6 28 -1
v 6 28 -1
v 7 28 -1
v -7 28 -3
v -6 28 -3
v 6 28 -3
v 7 28 -3
v -4 29 3
v 4 29 3
v -4 29 2
v 4 29 2
v -6 30 2
v 6 30 2
v -6 30 1
v -3 30 1
v 3 30 1
v 6 30 1
v -6 30 -2
v -3 30 -2
v 3 30 -2
v 6 30 -2
v -6 30 -6
v 6 30 -6
v -6 31 -1
v -3 31 -1
v 3 31 -1
v 6 31 -1
v -6 31 -2
v -3 31 -2
v 3 31 -2
v 6 31 -2
v -6 33 1
v -3 33 1
v 3 33 1
v 6 33 1
v -6 33 -0
v -3 33 -0
v 3 33 -0
v 6 33 -0
v -6 34 -0
v -5 34 -0
v -4 34 -0
v -3 34 -0
v 3 34 -0
v 4 34 -0
v 5 34 -0
v 6 34 -0
v -6 34 -2
v -5 34 -2
v -4 34 -2
v -3 34 -2
v 3 34 -2
v 4 34 -2
v 5 34 -2
v 6 34 -2
v -5 35 -0
v -4 35 -0
v 4 35 -0
v 5 35 -0
v -5 35 -2
v -4 35 -2
v 4 35 -2
v 5 35 -2

# faces
f 5/2/1 2/2/1 1/2/1
f 6/2/1 2/2/1 5/2/1
f 7/2/1 4/2/1 3/2/1
f 8/2/1 4/2/1 7/2/1
f 11/2/1 10/2/1 9/2/1
f 12/2/1 10/2/1 11/2/1
f 13/2/1 10/2/1 12/2/1
f 14/2/1 10/2/1 13/2/1
f 17/2/1 16/2/1 15/2/1
f 18/2/1 16/2/1 17/2/1
f 21/2/1 20/2/1 19/2/1
f 22/2/1 20/2/1 21/2/1
f 25/2/1 24/2/1 23/2/1
f 26/2/1 24/2/1 25/2/1
f 29/2/1 28/2/1 27/2/1
f 30/2/1 28/2/1 29/2/1
f 35/1/1 32/1/1 31/1/1
f 36/1/1 32/1/1 35/1/1
f 37/1/1 34/1/1 33/1/1
f 38/1/1 34/1/1 37/1/1
f 41/2/1 40/2/1 39/2/1
f 43/2/1 41/2/1 39/2/1
f 43/2/1 42/2/1 41/2/1
f 44/2/1 42/2/1 43/2/1
f 45/2/1 43/2/1 39/2/1
f 46/2/1 43/2/1 45/2/1
f 49/2/1 48/2/1 47/2/1
f 50/2/1 48/2/1 49/2/1
f 51/2/1 48/2/1 50/2/1
f 52/2/1 48/2/1 51/2/1
f 55/1/1 54/1/1 53/1/1
f 56/1/1 54/1/1 55/1/1
f 59/2/1 58/2/1 57/2/1
f 60/2/1 58/2/1 59/2/1
f 61/2/1 58/2/1 60/2/1
f 62/2/1 58/2/1 61/2/1
f 64/2/1 58/2/1 62/2/1
f 65/2/1 59/2/1 57/2/1
f 66/2/1 64/2/1 63/2/1
f 67/2/1 65/2/1 57/2/1
f 67/2/1 66/2/1 65/2/1
f 68/2/1 66/2/1 67/2/1
f 69/2/1 66/2/1 68/2/1
f 70/2/1 64/2/1 66/2/1
f 70/2/1 66/2/1 69/2/1
f 70/2/1 58/2/1 64/2/1
f 71/4/1 69/4/1 68/4/1
f 72/4/1 69/4/1 71/4/1
f 73/4/1 71/4/1 68/4/1
f 74/4/1 71/4/1 73/4/1
f 75/4/1 71/4/1 74/4/1
f 77/4/1 76/4/1 75/4/1
f 77/4/1 75/4/1 74/4/1
f 78/4/1 76/4/1 77/4/1
f 83/2/1 80/2/1 79/2/1
f 84/2/1 80/2/1 83/2/1
f 86/2/1 82/2/1 81/2/1
f 88/2/1 85/2/1 84/2/1
f 89/2/1 85/2/1 88/2/1
f 90/2/1 87/2/1 86/2/1
f 90/2/1 86/2/1 81/2/1
f 91/2/1 87/2/1 90/2/1
f 93/2/1 92/2/1 91/2/1
f 93/2/1 91/2/1 90/2/1
f 93/2/1 90/2/1 89/2/1
f 94/2/1 92/2/1 93/2/1
f 95/2/1 92/2/1 94/2/1
f 96/2/1 92/2/1 95/2/1
f 98/2/1 92/2/1 96/2/1
f 99/2/1 92/2/1 98/2/1
f 99/2/1 98/2/1 97/2/1
f 100/2/1 92/2/1 99/2/1
f 101/2/1 99/2/1 97/2/1
f 102/2/1 99/2/1 101/2/1
f 103/2/1 101/2/1 97/2/1
f 104/2/1 101/2/1 103/2/1
f 107/3/1 106/3/1 105/3/1
f 108/3/1 106/3/1 107/3/1
f 109/3/1 107/3/1 105/3/1
f 110/3/1 107/3/1 109/3/1
f 111/3/1 106/3/1 108/3/1
f 112/3/1 106/3/1 111/3/1
f 113/2/1 112/2/1 111/2/1
f 114/2/1 112/2/1 113/2/1
f 117/2/1 116/2/1 115/2/1
f 118/2/1 116/2/1 117/2/1
f 121/4/1 120/4/1 119/4/1
f 122/4/1 120/4/1 121/4/1
f 125/2/1 124/2/1 123/2/1
f 126/2/1 124/2/1 125/2/1
f 128/1/1 126/1/1 125/1/1
f 129/1/1 126/1/1 128/1/1
f 131/1/1 129/1/1 128/1/1
f 131/1/1 130/1/1 129/1/1
f 131/1/1 128/1/1 127/1/1
f 132/1/1 130/1/1 131/1/1
f 133/1/1 131/1/1 127/1/1
f 134/1/1 130/1/1 132/1/1
f 135/1/1 133/1/1 127/1/1
f 135/1/1 134/1/1 133/1/1
f 136/1/1 130/1/1 134/1/1
f 136/1/1 134/1/1 135/1/1
f 139/2/1 138/2/1 137/2/1
f 140/2/1 138/2/1 139/2/1
f 143/1/1 142/1/1 141/1/1
f 144/1/1 142/1/1 143/1/1
f 148/2/1 146/2/1 145/2/1
f 148/2/1 147/2/1 146/2/1
f 149/2/1 148/2/1 145/2/1
f 150/2/1 148/2/1 149/2/1
f 153/2/1 152/2/1 151/2/1
f 154/2/1 152/2/1 153/2/1
f 161/2/1 156/2/1 155/2/1
f 162/2/1 156/2/1 161/2/1
f 163/2/1 158/2/1 157/2/1
f 164/2/1 158/2/1 163/2/1
f 165/2/1 160/2/1 159/2/1
f 166/2/1 160/2/1 165/2/1
f 167/2/1 165/2/1 159/2/1
f 168/2/1 165/2/1 167/2/1
f 171/2/1 170/2/1 169/2/1
f 172/2/1 170/2/1 171/2/1
f 175/2/1 174/2/1 173/2/1
f 176/2/1 174/2/1 175/2/1
f 179/2/1 178/2/1 177/2/1
f 180/2/1 178/2/1 179/2/1
f 181/2/1 178/2/1 180/2/1
f 182/2/1 178/2/1 181/2/1
f 185/2/1 184/2/1 183/2/1
f 186/2/1 184/2/1 185/2/1
f 187/1/1 186/1/1 185/1/1
f 188/1/1 186/1/1 187/1/1
f 191/2/1 190/2/1 189/2/1
f 192/2/1 190/2/1 191/2/1
f 197/2/1 194/2/1 193/2/1
f 198/2/1 194/2/1 197/2/1
f 200/2/1 196/2/1 195/2/1
f 202/2/1 199/2/1 198/2/1
f 203/2/1 199/2/1 202/2/1
f 204/2/1 201/2/1 200/2/1
f 204/2/1 200/2/1 195/2/1
f 205/2/1 201/2/1 204/2/1
f 207/2/1 206/2/1 205/2/1
f 207/2/1 205/2/1 204/2/1
f 207/2/1 204/2/1 203/2/1
f 208/2/1 206/2/1 207/2/1
f 209/2/1 206/2/1 208/2/1
f 210/2/1 206/2/1 209/2/1
f 212/2/1 206/2/1 210/2/1
f 213/2/1 206/2/1 212/2/1
f 213/2/1 212/2/1 211/2/1
f 214/2/1 206/2/1 213/2/1
f 215/2/1 213/2/1 211/2/1
f 216/2/1 213/2/1 215/2/1
f 217/2/1 215/2/1 211/2/1
f 218/2/1 215/2/1 217/2/1
f 221/3/1 220/3/1 219/3/1
f 222/3/1 220/3/1 221/3/1
f 225/4/1 224/4/1 223/4/1
f 226/4/1 224/4/1 225/4/1
f 227/4/1 225/4/1 223/4/1
f 228/4/1 225/4/1 227/4/1
f 229/4/1 225/4/1 228/4/1
f 231/4/1 230/4/1 229/4/1
f 231/4/1 229/4/1 228/4/1
f 232/4/1 230/4/1 231/4/1
f 235/3/1 234/3/1 233/3/1
f 236/3/1 234/3/1 235/3/1
f 237/3/1 235/3/1 233/3/1
f 238/3/1 235/3/1 237/3/1
f 241/4/1 240/4/1 239/4/1
f 242/4/1 240/4/1 241/4/1
f 245/2/1 244/2/1 243/2/1
f 246/2/1 244/2/1 245/2/1
f 249/2/1 248/2/1 247/2/1
f 250/2/1 248/2/1 249/2/1
f 253/2/1 252/2/1 251/2/1
f 254/2/1 252/2/1 253/2/1
f 257/2/1 256/2/1 255/2/1
f 258/2/1 256/2/1 257/2/1
f 259/2/2 260/2/2 261/2/2
f 261/2/2 260/2/2 262/2/2
f 263/2/2 264/2/2 265/2/2
f 265/2/2 264/2/2 266/2/2
f 267/2/2 268/2/2 269/2/2
f 269/2/2 268/2/2 270/2/2
f 271/2/2 272/2/2 273/2/2
f 273/2/2 272/2/2 274/2/2
f 275/3/2 276/3/2 277/3/2
f 277/3/2 276/3/2 278/3/2
f 275/3/2 277/3/2 279/3/2
f 279/3/2 277/3/2 280/3/2
f 281/4/2 282/4/2 283/4/2
f 283/4/2 282/4/2 284/4/2
f 285/2/2 286/2/2 289/2/2
f 289/2/2 286/2/2 290/2/2
f 287/2/2 288/2/2 292/2/2
f 290/2/2 291/2/2 294/2/2
f 294/2/2 291/2/2 295/2/2
f 292/2/2 293/2/2 296/2/2
f 287/2/2 292/2/2 296/2/2
f 296/2/2 293/2/2 297/2/2
f 297/2/2 298/2/2 299/2/2
f 296/2/2 297/2/2 299/2/2
f 295/2/2 296/2/2 299/2/2
f 299/2/2 298/2/2 300/2/2
f 300/2/2 298/2/2 301/2/2
f 301/2/2 298/2/2 302/2/2
f 302/2/2 298/2/2 304/2/2
f 304/2/2 298/2/2 305/2/2
f 303/2/2 304/2/2 305/2/2
f 305/2/2 298/2/2 306/2/2
f 303/2/2 305/2/2 307/2/2
f 307/2/2 305/2/2 308/2/2
f 303/2/2 307/2/2 309/2/2
f 309/2/2 307/2/2 310/2/2
f 311/3/2 312/3/2 313/3/2
f 313/3/2 312/3/2 314/3/2
f 315/4/2 316/4/2 317/4/2
f 317/4/2 316/4/2 318/4/2
f 315/4/2 317/4/2 319/4/2
f 319/4/2 317/4/2 320/4/2
f 320/4/2 317/4/2 321/4/2
f 321/4/2 322/4/2 323/4/2
f 320/4/2 321/4/2 323/4/2
f 323/4/2 322/4/2 324/4/2
f 325/2/2 326/2/2 327/2/2
f 327/2/2 326/2/2 328/2/2
f 328/2/2 326/2/2 329/2/2
f 329/2/2 326/2/2 330/2/2
f 331/2/2 332/2/2 333/2/2
f 333/2/2 332/2/2 334/2/2
f 333/1/2 334/1/2 335/1/2
f 335/1/2 334/1/2 336/1/2
f 337/2/2 338/2/2 339/2/2
f 339/2/2 338/2/2 340/2/2
f 341/2/2 342/2/2 343/2/2
f 343/2/2 342/2/2 344/2/2
f 345/2/2 346/2/2 347/2/2
f 347/2/2 346/2/2 348/2/2
f 349/2/2 350/2/2 351/2/2
f 351/2/2 350/2/2 352/2/2
f 353/2/2 354/2/2 359/2/2
f 359/2/2 354/2/2 360/2/2
f 355/2/2 356/2/2 361/2/2
f 361/2/2 356/2/2 362/2/2
f 357/2/2 358/2/2 363/2/2
f 363/2/2 358/2/2 364/2/2
f 357/2/2 363/2/2 365/2/2
f 365/2/2 363/2/2 366/2/2
f 367/1/2 368/1/2 369/1/2
f 369/1/2 368/1/2 370/1/2
f 371/2/2 372/2/2 374/2/2
f 372/2/2 373/2/2 374/2/2
f 371/2/2 374/2/2 375/2/2
f 375/2/2 374/2/2 376/2/2
f 377/2/2 378/2/2 379/2/2
f 379/2/2 378/2/2 380/2/2
f 379/1/2 380/1/2 382/1/2
f 382/1/2 380/1/2 383/1/2
f 382/1/2 383/1/2 385/1/2
f 383/1/2 384/1/2 385/1/2
f 381/1/2 382/1/2 385/1/2
f 385/1/2 384/1/2 386/1/2
f 381/1/2 385/1/2 387/1/2
f 386/1/2 384/1/2 388/1/2
f 381/1/2 387/1/2 389/1/2
f 387/1/2 388/1/2 389/1/2
f 388/1/2 384/1/2 390/1/2
f 389/1/2 388/1/2 390/1/2
f 391/2/2 392/2/2 393/2/2
f 393/2/2 392/2/2 394/2/2
f 395/2/2 396/2/2 399/2/2
f 399/2/2 396/2/2 400/2/2
f 397/2/2 398/2/2 402/2/2
f 400/2/2 401/2/2 404/2/2
f 404/2/2 401/2/2 405/2/2
f 402/2/2 403/2/2 406/2/2
f 397/2/2 402/2/2 406/2/2
f 406/2/2 403/2/2 407/2/2
f 407/2/2 408/2/2 409/2/2
f 406/2/2 407/2/2 409/2/2
f 405/2/2 406/2/2 409/2/2
f 409/2/2 408/2/2 410/2/2
f 410/2/2 408/2/2 411/2/2
f 411/2/2 408/2/2 412/2/2
f 412/2/2 408/2/2 414/2/2
f 414/2/2 408/2/2 415/2/2
f 413/2/2 414/2/2 415/2/2
f 415/2/2 408/2/2 416/2/2
f 413/2/2 415/2/2 417/2/2
f 417/2/2 415/2/2 418/2/2
f 413/2/2 417/2/2 419/2/2
f 419/2/2 417/2/2 420/2/2
f 421/3/2 422/3/2 423/3/2
f 423/3/2 422/3/2 424/3/2
f 421/3/2 423/3/2 425/3/2
f 425/3/2 423/3/2 426/3/2
f 424/3/2 422/3/2 427/3/2
f 427/3/2 422/3/2 428/3/2
f 427/2/2 428/2/2 429/2/2
f 429/2/2 428/2/2 430/2/2
f 431/2/2 432/2/2 433/2/2
f 433/2/2 432/2/2 434/2/2
f 435/4/2 436/4/2 437/4/2
f 437/4/2 436/4/2 438/4/2
f 439/2/2 440/2/2 441/2/2
f 441/2/2 440/2/2 442/2/2
f 442/2/2 440/2/2 443/2/2
f 443/2/2 440/2/2 444/2/2
f 445/1/2 446/1/2 447/1/2
f 447/1/2 446/1/2 448/1/2
f 449/2/2 450/2/2 451/2/2
f 451/2/2 450/2/2 452/2/2
f 452/2/2 450/2/2 453/2/2
f 453/2/2 450/2/2 454/2/2
f 454/2/2 450/2/2 456/2/2
f 449/2/2 451/2/2 457/2/2
f 455/2/2 456/2/2 458/2/2
f 449/2/2 457/2/2 459/2/2
f 457/2/2 458/2/2 459/2/2
f 459/2/2 458/2/2 460/2/2
f 460/2/2 458/2/2 461/2/2
f 458/2/2 456/2/2 462/2/2
f 461/2/2 458/2/2 462/2/2
f 456/2/2 450/2/2 462/2/2
f 460/4/2 461/4/2 463/4/2
f 463/4/2 461/4/2 464/4/2
f 460/4/2 463/4/2 465/4/2
f 465/4/2 463/4/2 466/4/2
f 466/4/2 463/4/2 467/4/2
f 467/4/2 468/4/2 469/4/2
f 466/4/2 467/4/2 469/4/2
f 469/4/2 468/4/2 470/4/2
f 471/2/2 472/2/2 473/2/2
f 473/2/2 472/2/2 474/2/2
f 475/1/2 476/1/2 479/1/2
f 479/1/2 476/1/2 480/1/2
f 477/1/2 478/1/2 481/1/2
f 481/1/2 478/1/2 482/1/2
f 483/2/2 484/2/2 485/2/2
f 483/2/2 485/2/2 487/2/2
f 485/2/2 486/2/2 487/2/2
f 487/2/2 486/2/2 488/2/2
f 483/2/2 487/2/2 489/2/2
f 489/2/2 487/2/2 490/2/2
f 491/2/2 492/2/2 493/2/2
f 493/2/2 492/2/2 494/2/2
f 495/2/2 496/2/2 497/2/2
f 497/2/2 496/2/2 498/2/2
f 499/2/2 500/2/2 501/2/2
f 501/2/2 500/2/2 502/2/2
f 503/2/2 504/2/2 505/2/2
f 505/2/2 504/2/2 506/2/2
f 506/2/2 504/2/2 507/2/2
f 507/2/2 504/2/2 508/2/2
f 509/2/2 510/2/2 513/2/2
f 513/2/2 510/2/2 514/2/2
f 511/2/2 512/2/2 515/2/2
f 515/2/2 512/2/2 516/2/2
f 519/3/3 518/3/3 517/3/3
f 520/3/3 518/3/3 519/3/3
f 523/3/3 522/3/3 521/3/3
f 524/3/3 522/3/3 523/3/3
f 527/2/3 526/2/3 525/2/3
f 528/2/3 526/2/3 527/2/3
f 529/2/3 527/2/3 525/2/3
f 530/2/3 526/2/3 528/2/3
f 531/2/3 529/2/3 525/2/3
f 531/2/3 530/2/3 529/2/3
f 532/2/3 526/2/3 530/2/3
f 532/2/3 530/2/3 531/2/3
f 533/2/3 531/2/3 525/2/3
f 534/2/3 526/2/3 532/2/3
f 535/2/3 533/2/3 525/2/3
f 535/2/3 534/2/3 533/2/3
f 536/2/3 526/2/3 534/2/3
f 536/2/3 534/2/3 535/2/3
f 539/2/3 538/2/3 537/2/3
f 540/2/3 538/2/3 539/2/3
f 543/3/3 542/3/3 541/3/3
f 544/3/3 542/3/3 543/3/3
f 549/2/3 548/2/3 547/2/3
f 550/2/3 548/2/3 549/2/3
f 553/2/3 546/2/3 545/2/3
f 554/2/3 546/2/3 553/2/3
f 555/2/3 552/2/3 551/2/3
f 556/2/3 552/2/3 555/2/3
f 559/3/3 558/3/3 557/3/3
f 560/3/3 558/3/3 559/3/3
f 563/2/3 562/2/3 561/2/3
f 564/2/3 562/2/3 563/2/3
f 570/2/3 569/2/3 568/2/3
f 573/3/3 566/3/3 565/3/3
f 574/2/3 567/2/3 566/2/3
f 574/3/3 566/3/3 573/3/3
f 575/2/3 567/2/3 574/2/3
f 576/2/3 573/2/3 572/2/3
f 577/2/3 573/2/3 576/2/3
f 580/2/3 579/2/3 578/2/3
f 581/2/3 579/2/3 580/2/3
f 584/2/3 571/2/3 570/2/3
f 584/2/3 570/2/3 568/2/3
f 585/2/3 571/2/3 584/2/3
f 586/3/3 582/3/3 581/3/3
f 587/2/3 583/2/3 582/2/3
f 587/3/3 582/3/3 586/3/3
f 588/2/3 583/2/3 587/2/3
f 589/2/3 584/2/3 568/2/3
f 590/2/3 584/2/3 589/2/3
f 593/2/3 592/2/3 591/2/3
f 594/2/3 592/2/3 593/2/3
f 599/2/3 596/2/3 595/2/3
f 600/2/3 596/2/3 599/2/3
f 601/2/3 596/2/3 600/2/3
f 602/2/3 596/2/3 601/2/3
f 603/2/3 596/2/3 602/2/3
f 606/3/3 602/3/3 601/3/3
f 607/3/3 602/3/3 606/3/3
f 608/2/3 596/2/3 603/2/3
f 609/2/3 596/2/3 608/2/3
f 610/2/3 598/2/3 597/2/3
f 611/2/3 598/2/3 610/2/3
f 612/2/3 599/2/3 595/2/3
f 613/4/3 607/4/3 606/4/3
f 614/3/3 602/3/3 607/3/3
f 614/4/3 607/4/3 613/4/3
f 617/2/3 612/2/3 595/2/3
f 618/2/3 612/2/3 617/2/3
f 619/3/3 614/3/3 613/3/3
f 620/3/3 602/3/3 614/3/3
f 620/3/3 614/3/3 619/3/3
f 621/2/3 616/2/3 615/2/3
f 622/2/3 616/2/3 621/2/3
f 625/2/3 624/2/3 623/2/3
f 626/2/3 624/2/3 625/2/3
f 629/2/3 620/2/3 619/2/3
f 630/2/3 620/2/3 629/2/3
f 633/2/3 628/2/3 627/2/3
f 634/3/3 630/3/3 629/3/3
f 635/3/3 630/3/3 634/3/3
f 636/1/3 605/1/3 604/1/3
f 637/1/3 605/1/3 636/1/3
f 638/4/3 635/4/3 634/4/3
f 639/3/3 630/3/3 635/3/3
f 639/4/3 635/4/3 638/4/3
f 641/2/3 596/2/3 609/2/3
f 642/2/3 632/2/3 631/2/3
f 643/2/3 632/2/3 642/2/3
f 644/2/3 633/2/3 627/2/3
f 646/3/3 639/3/3 638/3/3
f 647/3/3 630/3/3 639/3/3
f 647/3/3 639/3/3 646/3/3
f 648/2/3 641/2/3 640/2/3
f 651/2/3 646/2/3 645/2/3
f 651/2/3 647/2/3 646/2/3
f 651/2/3 645/2/3 644/2/3
f 651/2/3 648/2/3 647/2/3
f 651/2/3 644/2/3 627/2/3
f 652/2/3 641/2/3 648/2/3
f 652/2/3 648/2/3 651/2/3
f 652/2/3 596/2/3 641/2/3
f 653/2/3 650/2/3 649/2/3
f 654/2/3 650/2/3 653/2/3
f 658/2/3 656/2/3 655/2/3
f 659/2/3 658/2/3 657/2/3
f 660/2/3 656/2/3 658/2/3
f 660/2/3 658/2/3 659/2/3
f 662/2/3 656/2/3 660/2/3
f 663/2/3 662/2/3 661/2/3
f 664/2/3 656/2/3 662/2/3
f 664/2/3 662/2/3 663/2/3
f 670/1/3 666/1/3 665/1/3
f 673/2/3 668/2/3 667/2/3
f 674/2/3 668/2/3 673/2/3
f 676/1/3 670/1/3 669/1/3
f 677/1/3 666/1/3 670/1/3
f 677/1/3 670/1/3 676/1/3
f 679/2/3 675/2/3 674/2/3
f 680/2/3 675/2/3 679/2/3
f 681/4/3 672/4/3 671/4/3
f 682/4/3 672/4/3 681/4/3
f 683/2/3 679/2/3 678/2/3
f 684/2/3 679/2/3 683/2/3
f 689/2/3 686/2/3 685/2/3
f 690/2/3 686/2/3 689/2/3
f 691/2/3 688/2/3 687/2/3
f 692/2/3 688/2/3 691/2/3
f 699/2/3 693/2/3 692/2/3
f 700/2/3 693/2/3 699/2/3
f 701/2/3 699/2/3 698/2/3
f 702/2/3 699/2/3 701/2/3
f 703/1/3 697/1/3 696/1/3
f 704/1/3 697/1/3 703/1/3
f 705/4/3 695/4/3 694/4/3
f 706/4/3 695/4/3 705/4/3
f 707/1/3 697/1/3 704/1/3
f 708/1/3 697/1/3 707/1/3
f 711/2/3 710/2/3 709/2/3
f 712/2/3 710/2/3 711/2/3
f 714/2/3 710/2/3 712/2/3
f 715/2/3 714/2/3 713/2/3
f 716/2/3 710/2/3 714/2/3
f 716/2/3 714/2/3 715/2/3
f 717/2/3 710/2/3 716/2/3
f 718/2/3 710/2/3 717/2/3
f 721/2/3 720/2/3 719/2/3
f 722/2/3 720/2/3 721/2/3
f 727/2/3 724/2/3 723/2/3
f 728/2/3 724/2/3 727/2/3
f 732/4/3 726/4/3 725/4/3
f 734/2/3 731/2/3 730/2/3
f 737/4/3 733/4/3 732/4/3
f 737/4/3 732/4/3 725/4/3
f 738/4/3 733/4/3 737/4/3
f 740/2/3 729/2/3 728/2/3
f 741/2/3 729/2/3 740/2/3
f 742/2/3 735/2/3 734/2/3
f 742/2/3 734/2/3 730/2/3
f 743/2/3 735/2/3 742/2/3
f 746/4/3 737/4/3 725/4/3
f 747/4/3 737/4/3 746/4/3
f 748/2/3 740/2/3 739/2/3
f 749/2/3 740/2/3 748/2/3
f 750/2/3 735/2/3 743/2/3
f 751/1/3 736/1/3 735/1/3
f 751/2/3 735/2/3 750/2/3
f 752/1/3 736/1/3 751/1/3
f 753/1/3 745/1/3 744/1/3
f 754/1/3 745/1/3 753/1/3
f 762/2/3 756/2/3 755/2/3
f 763/2/3 756/2/3 762/2/3
f 766/2/3 758/2/3 757/2/3
f 767/1/3 761/1/3 760/1/3
f 768/1/3 761/1/3 767/1/3
f 771/2/3 766/2/3 765/2/3
f 771/2/3 758/2/3 766/2/3
f 772/1/3 759/1/3 758/1/3
f 772/2/3 758/2/3 771/2/3
f 773/1/3 759/1/3 772/1/3
f 774/4/3 770/4/3 769/4/3
f 777/2/3 764/2/3 763/2/3
f 778/2/3 764/2/3 777/2/3
f 779/2/3 771/2/3 765/2/3
f 780/2/3 771/2/3 779/2/3
f 781/4/3 774/4/3 769/4/3
f 781/4/3 775/4/3 774/4/3
f 782/4/3 775/4/3 781/4/3
f 783/2/3 777/2/3 776/2/3
f 784/2/3 777/2/3 783/2/3
f 785/4/3 781/4/3 769/4/3
f 786/4/3 781/4/3 785/4/3
f 789/2/3 788/2/3 787/2/3
f 790/2/3 788/2/3 789/2/3
f 793/2/3 792/2/3 791/2/3
f 795/2/3 792/2/3 793/2/3
f 796/2/3 792/2/3 795/2/3
f 796/2/3 795/2/3 794/2/3
f 797/2/3 792/2/3 796/2/3
f 798/2/3 796/2/3 794/2/3
f 799/2/3 796/2/3 798/2/3
f 802/2/3 801/2/3 800/2/3
f 803/2/3 801/2/3 802/2/3
f 806/2/3 805/2/3 804/2/3
f 807/2/3 805/2/3 806/2/3
f 810/2/3 809/2/3 808/2/3
f 811/2/3 809/2/3 810/2/3
f 814/2/3 813/2/3 812/2/3
f 815/2/3 813/2/3 814/2/3
f 818/2/3 817/2/3 816/2/3
f 820/2/3 818/2/3 816/2/3
f 820/2/3 819/2/3 818/2/3
f 821/2/3 819/2/3 820/2/3
f 822/2/3 819/2/3 821/2/3
f 823/2/3 819/2/3 822/2/3
f 824/2/3 819/2/3 823/2/3
f 827/2/3 826/2/3 825/2/3
f 828/2/3 826/2/3 827/2/3
f 831/2/3 830/2/3 829/2/3
f 832/2/3 830/2/3 831/2/3
f 833/3/4 834/3/4 835/3/4
f 835/3/4 834/3/4 836/3/4
f 837/3/4 838/3/4 839/3/4
f 839/3/4 838/3/4 840/3/4
f 841/2/4 842/2/4 843/2/4
f 843/2/4 842/2/4 844/2/4
f 845/2/4 846/2/4 847/2/4
f 847/2/4 846/2/4 848/2/4
f 849/2/4 850/2/4 851/2/4
f 851/2/4 850/2/4 852/2/4
f 853/2/4 854/2/4 855/2/4
f 855/2/4 854/2/4 856/2/4
f 857/2/4 858/2/4 859/2/4
f 859/2/4 858/2/4 861/2/4
f 861/2/4 858/2/4 862/2/4
f 860/2/4 861/2/4 862/2/4
f 862/2/4 858/2/4 863/2/4
f 860/2/4 862/2/4 864/2/4
f 864/2/4 862/2/4 865/2/4
f 866/2/4 867/2/4 868/2/4
f 866/2/4 868/2/4 870/2/4
f 868/2/4 869/2/4 870/2/4
f 870/2/4 869/2/4 871/2/4
f 871/2/4 869/2/4 872/2/4
f 872/2/4 869/2/4 873/2/4
f 873/2/4 869/2/4 874/2/4
f 875/2/4 876/2/4 879/2/4
f 879/2/4 876/2/4 880/2/4
f 877/4/4 878/4/4 883/4/4
f 883/4/4 878/4/4 884/4/4
f 881/2/4 882/2/4 885/2/4
f 885/2/4 882/2/4 886/2/4
f 887/2/4 888/2/4 889/2/4
f 889/2/4 888/2/4 890/2/4
f 893/2/4 894/2/4 895/2/4
f 895/2/4 894/2/4 896/2/4
f 891/4/4 892/4/4 897/4/4
f 897/4/4 892/4/4 898/4/4
f 899/2/4 900/2/4 902/2/4
f 901/2/4 902/2/4 903/2/4
f 902/2/4 900/2/4 904/2/4
f 903/2/4 902/2/4 904/2/4
f 907/4/4 908/4/4 913/4/4
f 911/2/4 912/2/4 915/2/4
f 913/4/4 914/4/4 918/4/4
f 907/4/4 913/4/4 918/4/4
f 918/4/4 914/4/4 919/4/4
f 909/2/4 910/2/4 920/2/4
f 920/2/4 910/2/4 921/2/4
f 915/2/4 916/2/4 922/2/4
f 911/2/4 915/2/4 922/2/4
f 922/2/4 916/2/4 923/2/4
f 905/4/4 906/4/4 926/4/4
f 926/4/4 906/4/4 927/4/4
f 907/4/4 918/4/4 928/4/4
f 928/4/4 918/4/4 929/4/4
f 923/2/4 916/2/4 930/2/4
f 916/1/4 917/1/4 931/1/4
f 930/2/4 916/2/4 931/2/4
f 931/1/4 917/1/4 932/1/4
f 924/1/4 925/1/4 933/1/4
f 933/1/4 925/1/4 934/1/4
f 935/2/4 936/2/4 943/2/4
f 938/1/4 939/1/4 944/1/4
f 944/1/4 939/1/4 945/1/4
f 942/2/4 943/2/4 950/2/4
f 943/2/4 936/2/4 950/2/4
f 936/1/4 937/1/4 951/1/4
f 950/2/4 936/2/4 951/2/4
f 951/1/4 937/1/4 952/1/4
f 948/4/4 949/4/4 953/4/4
f 940/2/4 941/2/4 955/2/4
f 955/2/4 941/2/4 956/2/4
f 942/2/4 950/2/4 957/2/4
f 957/2/4 950/2/4 958/2/4
f 953/4/4 954/4/4 959/4/4
f 948/4/4 953/4/4 959/4/4
f 959/4/4 954/4/4 960/4/4
f 946/4/4 947/4/4 961/4/4
f 961/4/4 947/4/4 962/4/4
f 948/4/4 959/4/4 963/4/4
f 963/4/4 959/4/4 964/4/4
f 965/2/4 966/2/4 967/2/4
f 967/2/4 966/2/4 968/2/4
f 968/2/4 966/2/4 969/2/4
f 969/2/4 966/2/4 970/2/4
f 971/1/4 972/1/4 978/1/4
f 973/2/4 974/2/4 979/2/4
f 979/2/4 974/2/4 980/2/4
f 975/2/4 976/2/4 981/2/4
f 981/2/4 976/2/4 982/2/4
f 977/1/4 978/1/4 987/1/4
f 978/1/4 972/1/4 988/1/4
f 987/1/4 978/1/4 988/1/4
f 983/2/4 984/2/4 989/2/4
f 989/2/4 984/2/4 990/2/4
f 985/2/4 986/2/4 991/2/4
f 991/2/4 986/2/4 992/2/4
f 993/2/4 994/2/4 995/2/4
f 995/2/4 994/2/4 996/2/4
f 997/2/4 998/2/4 1003/2/4
f 1003/2/4 998/2/4 1004/2/4
f 999/2/4 1000/2/4 1005/2/4
f 1005/2/4 1000/2/4 1006/2/4
f 1001/1/4 1002/1/4 1007/1/4
f 1007/1/4 1002/1/4 1008/1/4
f 1008/1/4 1002/1/4 1013/1/4
f 1013/1/4 1002/1/4 1014/1/4
f 1009/2/4 1010/2/4 1015/2/4
f 1015/2/4 1010/2/4 1016/2/4
f 1011/2/4 1012/2/4 1017/2/4
f 1017/2/4 1012/2/4 1018/2/4
f 1019/2/4 1020/2/4 1021/2/4
f 1021/2/4 1020/2/4 1022/2/4
f 1023/2/4 1024/2/4 1027/2/4
f 1027/2/4 1024/2/4 1028/2/4
f 1025/1/4 1026/1/4 1031/1/4
f 1031/1/4 1026/1/4 1032/1/4
f 1029/2/4 1030/2/4 1033/2/4
f 1033/2/4 1030/2/4 1034/2/4
f 1035/2/4 1036/2/4 1037/2/4
f 1037/2/4 1036/2/4 1038/2/4
f 1039/2/4 1040/2/4 1041/2/4
f 1041/2/4 1040/2/4 1042/2/4
f 1055/2/5 1044/2/5 1043/2/5
f 1056/2/5 1044/2/5 1055/2/5
f 1057/2/5 1046/2/5 1045/2/5
f 1058/2/5 1046/2/5 1057/2/5
f 1059/2/5 1048/2/5 1047/2/5
f 1060/2/5 1048/2/5 1059/2/5
f 1061/2/5 1050/2/5 1049/2/5
f 1062/2/5 1050/2/5 1061/2/5
f 1063/2/5 1052/2/5 1051/2/5
f 1064/2/5 1052/2/5 1063/2/5
f 1065/2/5 1054/2/5 1053/2/5
f 1066/2/5 1054/2/5 1065/2/5
f 1067/2/5 1058/2/5 1057/2/5
f 1067/2/5 1057/2/5 1056/2/5
f 1067/2/5 1059/2/5 1058/2/5
f 1068/2/5 1059/2/5 1067/2/5
f 1069/2/5 1059/2/5 1068/2/5
f 1070/2/5 1059/2/5 1069/2/5
f 1071/2/5 1064/2/5 1063/2/5
f 1071/2/5 1065/2/5 1064/2/5
f 1071/2/5 1063/2/5 1062/2/5
f 1072/2/5 1065/2/5 1071/2/5
f 1073/2/5 1065/2/5 1072/2/5
f 1074/2/5 1065/2/5 1073/2/5
f 1075/2/5 1069/2/5 1068/2/5
f 1076/2/5 1069/2/5 1075/2/5
f 1077/2/5 1073/2/5 1072/2/5
f 1078/2/5 1073/2/5 1077/2/5
f 1083/2/5 1080/2/5 1079/2/5
f 1084/2/5 1080/2/5 1083/2/5
f 1085/2/5 1082/2/5 1081/2/5
f 1086/2/5 1082/2/5 1085/2/5
f 1091/2/5 1088/2/5 1087/2/5
f 1092/2/5 1088/2/5 1091/2/5
f 1093/2/5 1090/2/5 1089/2/5
f 1094/2/5 1090/2/5 1093/2/5
f 1099/2/5 1096/2/5 1095/2/5
f 1100/2/5 1096/2/5 1099/2/5
f 1101/2/5 1098/2/5 1097/2/5
f 1102/2/5 1098/2/5 1101/2/5
f 1107/2/5 1104/2/5 1103/2/5
f 1108/2/5 1104/2/5 1107/2/5
f 1109/2/5 1106/2/5 1105/2/5
f 1110/2/5 1106/2/5 1109/2/5
f 1113/1/5 1112/1/5 1111/1/5
f 1114/1/5 1112/1/5 1113/1/5
f 1115/1/5 1112/1/5 1114/1/5
f 1116/1/5 1112/1/5 1115/1/5
f 1118/1/5 1115/1/5 1114/1/5
f 1119/1/5 1115/1/5 1118/1/5
f 1121/1/5 1118/1/5 1117/1/5
f 1121/1/5 1120/1/5 1119/1/5
f 1121/1/5 1119/1/5 1118/1/5
f 1122/1/5 1120/1/5 1121/1/5
f 1127/1/5 1124/1/5 1123/1/5
f 1128/1/5 1124/1/5 1127/1/5
f 1129/1/5 1126/1/5 1125/1/5
f 1130/1/5 1126/1/5 1129/1/5
f 1136/2/5 1132/2/5 1131/2/5
f 1137/2/5 1132/2/5 1136/2/5
f 1144/2/5 1134/2/5 1133/2/5
f 1145/2/5 1134/2/5 1144/2/5
f 1147/2/5 1136/2/5 1135/2/5
f 1147/2/5 1137/2/5 1136/2/5
f 1147/2/5 1138/2/5 1137/2/5
f 1148/2/5 1138/2/5 1147/2/5
f 1149/2/5 1138/2/5 1148/2/5
f 1150/1/5 1140/1/5 1139/1/5
f 1151/1/5 1142/1/5 1141/1/5
f 1152/2/5 1146/2/5 1145/2/5
f 1152/2/5 1145/2/5 1144/2/5
f 1152/2/5 1144/2/5 1143/2/5
f 1153/2/5 1146/2/5 1152/2/5
f 1154/2/5 1146/2/5 1153/2/5
f 1155/2/5 1147/2/5 1135/2/5
f 1156/2/5 1150/2/5 1149/2/5
f 1156/2/5 1149/2/5 1148/2/5
f 1157/2/5 1152/2/5 1151/2/5
f 1157/2/5 1153/2/5 1152/2/5
f 1158/2/5 1146/2/5 1154/2/5
f 1159/2/5 1155/2/5 1135/2/5
f 1159/2/5 1156/2/5 1155/2/5
f 1160/1/5 1140/1/5 1150/1/5
f 1160/2/5 1156/2/5 1159/2/5
f 1160/2/5 1150/2/5 1156/2/5
f 1161/2/5 1158/2/5 1157/2/5
f 1161/1/5 1151/1/5 1141/1/5
f 1161/2/5 1157/2/5 1151/2/5
f 1162/2/5 1146/2/5 1158/2/5
f 1162/2/5 1158/2/5 1161/2/5
f 1163/1/5 1140/1/5 1160/1/5
f 1164/1/5 1140/1/5 1163/1/5
f 1165/1/5 1161/1/5 1141/1/5
f 1166/1/5 1161/1/5 1165/1/5
f 1171/2/5 1168/2/5 1167/2/5
f 1172/2/5 1168/2/5 1171/2/5
f 1177/2/5 1170/2/5 1169/2/5
f 1178/2/5 1170/2/5 1177/2/5
f 1181/2/5 1174/2/5 1173/2/5
f 1182/2/5 1174/2/5 1181/2/5
f 1183/2/5 1176/2/5 1175/2/5
f 1184/2/5 1176/2/5 1183/2/5
f 1187/2/5 1180/2/5 1179/2/5
f 1188/2/5 1180/2/5 1187/2/5
f 1189/2/5 1186/2/5 1185/2/5
f 1190/2/5 1186/2/5 1189/2/5
f 1194/2/5 1192/2/5 1191/2/5
f 1195/2/5 1192/2/5 1194/2/5
f 1197/2/5 1194/2/5 1193/2/5
f 1197/2/5 1196/2/5 1195/2/5
f 1197/2/5 1195/2/5 1194/2/5
f 1198/2/5 1196/2/5 1197/2/5
f 1199/2/5 1197/2/5 1193/2/5
f 1200/2/5 1197/2/5 1199/2/5
f 1201/2/5 1196/2/5 1198/2/5
f 1202/2/5 1196/2/5 1201/2/5
f 1203/2/5 1199/2/5 1193/2/5
f 1206/2/5 1196/2/5 1202/2/5
f 1207/2/5 1204/2/5 1203/2/5
f 1208/2/5 1206/2/5 1205/2/5
f 1209/2/5 1207/2/5 1203/2/5
f 1209/2/5 1208/2/5 1207/2/5
f 1209/2/5 1203/2/5 1193/2/5
f 1210/2/5 1206/2/5 1208/2/5
f 1210/2/5 1208/2/5 1209/2/5
f 1210/2/5 1196/2/5 1206/2/5
f 1215/3/5 1212/3/5 1211/3/5
f 1218/3/5 1214/3/5 1213/3/5
f 1219/3/5 1216/3/5 1215/3/5
f 1222/3/5 1218/3/5 1217/3/5
f 1223/3/5 1215/3/5 1211/3/5
f 1223/3/5 1219/3/5 1215/3/5
f 1224/2/5 1220/2/5 1219/2/5
f 1224/3/5 1219/3/5 1223/3/5
f 1225/2/5 1220/2/5 1224/2/5
f 1226/2/5 1222/2/5 1221/2/5
f 1227/3/5 1218/3/5 1222/3/5
f 1227/2/5 1222/2/5 1226/2/5
f 1228/3/5 1214/3/5 1218/3/5
f 1228/3/5 1218/3/5 1227/3/5
f 1231/2/5 1230/2/5 1229/2/5
f 1232/2/5 1230/2/5 1231/2/5
f 1233/2/5 1230/2/5 1232/2/5
f 1234/2/5 1230/2/5 1233/2/5
f 1235/2/5 1232/2/5 1231/2/5
f 1236/2/5 1232/2/5 1235/2/5
f 1237/2/5 1234/2/5 1233/2/5
f 1238/2/5 1234/2/5 1237/2/5
f 1243/2/5 1240/2/5 1239/2/5
f 1244/2/5 1240/2/5 1243/2/5
f 1245/2/5 1242/2/5 1241/2/5
f 1246/2/5 1242/2/5 1245/2/5
f 1251/2/5 1248/2/5 1247/2/5
f 1252/2/5 1248/2/5 1251/2/5
f 1253/2/5 1250/2/5 1249/2/5
f 1254/2/5 1250/2/5 1253/2/5
f 1259/2/5 1256/2/5 1255/2/5
f 1260/2/5 1256/2/5 1259/2/5
f 1261/2/5 1258/2/5 1257/2/5
f 1262/2/5 1258/2/5 1261/2/5
f 1265/2/5 1264/2/5 1263/2/5
f 1266/2/5 1264/2/5 1265/2/5
f 1267/2/5 1264/2/5 1266/2/5
f 1268/2/5 1264/2/5 1267/2/5
f 1273/4/5 1270/4/5 1269/4/5
f 1274/4/5 1270/4/5 1273/4/5
f 1275/4/5 1272/4/5 1271/4/5
f 1276/4/5 1272/4/5 1275/4/5
f 1277/2/6 1278/2/6 1289/2/6
f 1289/2/6 1278/2/6 1290/2/6
f 1279/2/6 1280/2/6 1291/2/6
f 1291/2/6 1280/2/6 1292/2/6
f 1281/2/6 1282/2/6 1293/2/6
f 1293/2/6 1282/2/6 1294/2/6
f 1283/2/6 1284/2/6 1295/2/6
f 1295/2/6 1284/2/6 1296/2/6
f 1285/2/6 1286/2/6 1297/2/6
f 1297/2/6 1286/2/6 1298/2/6
f 1287/2/6 1288/2/6 1299/2/6
f 1299/2/6 1288/2/6 1300/2/6
f 1290/2/6 1291/2/6 1301/2/6
f 1301/2/6 1291/2/6 1302/2/6
f 1292/2/6 1293/2/6 1303/2/6
f 1303/2/6 1293/2/6 1304/2/6
f 1296/2/6 1297/2/6 1305/2/6
f 1305/2/6 1297/2/6 1306/2/6
f 1298/2/6 1299/2/6 1307/2/6
f 1307/2/6 1299/2/6 1308/2/6
f 1309/2/6 1310/2/6 1314/2/6
f 1314/2/6 1310/2/6 1315/2/6
f 1311/2/6 1312/2/6 1318/2/6
f 1318/2/6 1312/2/6 1319/2/6
f 1313/2/6 1314/2/6 1321/2/6
f 1321/2/6 1314/2/6 1322/2/6
f 1315/2/6 1316/2/6 1323/2/6
f 1323/2/6 1316/2/6 1324/2/6
f 1317/2/6 1318/2/6 1325/2/6
f 1325/2/6 1318/2/6 1326/2/6
f 1319/2/6 1320/2/6 1327/2/6
f 1327/2/6 1320/2/6 1328/2/6
f 1329/2/6 1330/2/6 1333/2/6
f 1333/2/6 1330/2/6 1334/2/6
f 1331/2/6 1332/2/6 1335/2/6
f 1335/2/6 1332/2/6 1336/2/6
f 1337/2/6 1338/2/6 1341/2/6
f 1341/2/6 1338/2/6 1342/2/6
f 1339/2/6 1340/2/6 1343/2/6
f 1343/2/6 1340/2/6 1344/2/6
f 1345/2/6 1346/2/6 1349/2/6
f 1349/2/6 1346/2/6 1350/2/6
f 1347/2/6 1348/2/6 1351/2/6
f 1351/2/6 1348/2/6 1352/2/6
f 1353/2/6 1354/2/6 1357/2/6
f 1357/2/6 1354/2/6 1358/2/6
f 1355/2/6 1356/2/6 1359/2/6
f 1359/2/6 1356/2/6 1360/2/6
f 1361/2/6 1362/2/6 1365/2/6
f 1365/2/6 1362/2/6 1366/2/6
f 1363/2/6 1364/2/6 1367/2/6
f 1367/2/6 1364/2/6 1368/2/6
f 1369/2/6 1370/2/6 1373/2/6
f 1373/2/6 1370/2/6 1374/2/6
f 1371/2/6 1372/2/6 1375/2/6
f 1375/2/6 1372/2/6 1376/2/6
f 1377/2/6 1378/2/6 1381/2/6
f 1381/2/6 1378/2/6 1382/2/6
f 1379/2/6 1380/2/6 1383/2/6
f 1383/2/6 1380/2/6 1384/2/6
f 1385/2/6 1386/2/6 1393/2/6
f 1393/2/6 1386/2/6 1394/2/6
f 1394/2/6 1386/2/6 1395/2/6
f 1387/1/6 1388/1/6 1396/1/6
f 1389/1/6 1390/1/6 1397/1/6
f 1391/2/6 1392/2/6 1398/2/6
f 1398/2/6 1392/2/6 1399/2/6
f 1399/2/6 1392/2/6 1400/2/6
f 1394/2/6 1395/2/6 1402/2/6
f 1395/2/6 1396/2/6 1402/2/6
f 1398/2/6 1399/2/6 1403/2/6
f 1397/2/6 1398/2/6 1403/2/6
f 1401/2/6 1402/2/6 1405/2/6
f 1402/2/6 1396/2/6 1406/2/6
f 1405/2/6 1402/2/6 1406/2/6
f 1396/1/6 1388/1/6 1406/1/6
f 1389/1/6 1397/1/6 1407/1/6
f 1403/2/6 1404/2/6 1407/2/6
f 1397/2/6 1403/2/6 1407/2/6
f 1407/2/6 1404/2/6 1408/2/6
f 1406/1/6 1388/1/6 1409/1/6
f 1409/1/6 1388/1/6 1410/1/6
f 1389/1/6 1407/1/6 1411/1/6
f 1411/1/6 1407/1/6 1412/1/6
f 1413/1/6 1414/1/6 1415/1/6
f 1415/1/6 1414/1/6 1416/1/6
f 1413/1/6 1415/1/6 1417/1/6
f 1417/1/6 1415/1/6 1418/1/6
f 1416/1/6 1414/1/6 1419/1/6
f 1419/1/6 1414/1/6 1420/1/6
f 1413/1/6 1417/1/6 1421/1/6
f 1420/1/6 1414/1/6 1424/1/6
f 1421/1/6 1422/1/6 1425/1/6
f 1423/1/6 1424/1/6 1426/1/6
f 1421/1/6 1425/1/6 1427/1/6
f 1425/1/6 1426/1/6 1427/1/6
f 1413/1/6 1421/1/6 1427/1/6
f 1426/1/6 1424/1/6 1428/1/6
f 1427/1/6 1426/1/6 1428/1/6
f 1424/1/6 1414/1/6 1428/1/6
f 1429/3/6 1430/3/6 1433/3/6
f 1431/3/6 1432/3/6 1436/3/6
f 1433/3/6 1434/3/6 1437/3/6
f 1429/3/6 1433/3/6 1437/3/6
f 1437/3/6 1434/3/6 1438/3/6
f 1435/3/6 1436/3/6 1439/3/6
f 1436/3/6 1432/3/6 1440/3/6
f 1439/3/6 1436/3/6 1440/3/6
f 1441/3/6 1442/3/6 1445/3/6
f 1445/3/6 1442/3/6 1446/3/6
f 1443/3/6 1444/3/6 1451/3/6
f 1451/3/6 1444/3/6 1452/3/6
f 1447/2/6 1448/2/6 1453/2/6
f 1453/2/6 1448/2/6 1454/2/6
f 1449/2/6 1450/2/6 1455/2/6
f 1455/2/6 1450/2/6 1456/2/6
f 1457/2/6 1458/2/6 1460/2/6
f 1460/2/6 1458/2/6 1461/2/6
f 1459/2/6 1460/2/6 1463/2/6
f 1461/2/6 1462/2/6 1463/2/6
f 1460/2/6 1461/2/6 1463/2/6
f 1463/2/6 1462/2/6 1464/2/6
f 1464/2/6 1462/2/6 1465/2/6
f 1465/2/6 1462/2/6 1466/2/6
f 1466/2/6 1462/2/6 1467/2/6
f 1467/2/6 1462/2/6 1468/2/6
f 1468/2/6 1462/2/6 1469/2/6
f 1469/2/6 1462/2/6 1470/2/6
f 1471/2/6 1472/2/6 1475/2/6
f 1475/2/6 1472/2/6 1476/2/6
f 1473/2/6 1474/2/6 1477/2/6
f 1477/2/6 1474/2/6 1478/2/6
f 1479/2/6 1480/2/6 1483/2/6
f 1483/2/6 1480/2/6 1484/2/6
f 1481/2/6 1482/2/6 1485/2/6
f 1485/2/6 1482/2/6 1486/2/6
f 1487/2/6 1488/2/6 1491/2/6
f 1491/2/6 1488/2/6 1492/2/6
f 1489/2/6 1490/2/6 1493/2/6
f 1493/2/6 1490/2/6 1494/2/6
f 1495/2/6 1496/2/6 1497/2/6
f 1497/2/6 1496/2/6 1498/2/6
f 1499/2/6 1500/2/6 1501/2/6
f 1501/2/6 1500/2/6 1502/2/6
f 1502/2/6 1500/2/6 1503/2/6
f 1503/2/6 1500/2/6 1504/2/6
f 1502/2/6 1503/2/6 1506/2/6
f 1506/2/6 1503/2/6 1507/2/6
f 1505/2/6 1506/2/6 1509/2/6
f 1507/2/6 1508/2/6 1509/2/6
f 1506/2/6 1507/2/6 1509/2/6
f 1509/2/6 1508/2/6 1510/2/6
f 1511/4/6 1512/4/6 1515/4/6
f 1515/4/6 1512/4/6 1516/4/6
f 1513/4/6 1514/4/6 1517/4/6
f 1517/4/6 1514/4/6 1518/4/6
f 1519/4/6 1520/4/6 1523/4/6
f 1523/4/6 1520/4/6 1524/4/6
f 1521/4/6 1522/4/6 1525/4/6
f 1525/4/6 1522/4/6 1526/4/6
f 1527/4/6 1528/4/6 1535/4/6
f 1535/4/6 1528/4/6 1536/4/6
f 1529/4/6 1530/4/6 1537/4/6
f 1537/4/6 1530/4/6 1538/4/6
f 1531/4/6 1532/4/6 1539/4/6
f 1539/4/6 1532/4/6 1540/4/6
f 1533/4/6 1534/4/6 1541/4/6
f 1541/4/6 1534/4/6 1542/4/6
f 1543/4/6 1544/4/6 1547/4/6
f 1547/4/6 1544/4/6 1548/4/6
f 1545/4/6 1546/4/6 1549/4/6
f 1549/4/6 1546/4/6 1550/4/6
